%YAML 1.1
%TAG !u! tag:unity3d.com,2011:
--- !u!74 &7400000
AnimationClip:
  m_ObjectHideFlags: 0
  m_CorrespondingSourceObject: {fileID: 0}
  m_PrefabInstance: {fileID: 0}
  m_PrefabAsset: {fileID: 0}
  m_Name: BattlePhysical
  serializedVersion: 6
  m_Legacy: 0
  m_Compressed: 0
  m_UseHighQualityCurve: 1
  m_RotationCurves:
  - curve:
      serializedVersion: 2
      m_Curve:
      - serializedVersion: 3
        time: 0
        value: {x: -0.09823009, y: -0.043354068, z: -0.7236126, w: 0.6818036}
        inSlope: {x: 0.21554811, y: 0.14196004, z: 0.011959075, w: 0.051078197}
        outSlope: {x: 0.21554811, y: 0.14196004, z: 0.011959075, w: 0.051078197}
        tangentMode: 0
        weightedMode: 0
        inWeight: {x: 0.33333334, y: 0.33333334, z: 0.33333334, w: 0.33333334}
        outWeight: {x: 0.33333334, y: 0.33333334, z: 0.33333334, w: 0.33333334}
      - serializedVersion: 3
        time: 0.10000001
        value: {x: -0.045450516, y: -0.007766601, z: -0.7190572, w: 0.6934195}
        inSlope: {x: 0.8552003, y: 0.5900215, z: 0.107467175, w: 0.17079234}
        outSlope: {x: 0.8552003, y: 0.5900215, z: 0.107467175, w: 0.17079234}
        tangentMode: 0
        weightedMode: 0
        inWeight: {x: 0.33333334, y: 0.33333334, z: 0.33333334, w: 0.33333334}
        outWeight: {x: 0.33333334, y: 0.33333334, z: 0.33333334, w: 0.33333334}
      - serializedVersion: 3
        time: 0.26666668
        value: {x: 0.068298094, y: 0.07336252, z: -0.69632053, w: 0.7106976}
        inSlope: {x: 0.17961626, y: 0.103430234, z: 0.072703965, w: 0.04464448}
        outSlope: {x: 0.17961626, y: 0.103430234, z: 0.072703965, w: 0.04464448}
        tangentMode: 0
        weightedMode: 0
        inWeight: {x: 0.33333334, y: 0.33333334, z: 0.33333334, w: 0.33333334}
        outWeight: {x: 0.33333334, y: 0.33333334, z: 0.33333334, w: 0.33333334}
      - serializedVersion: 3
        time: 0.5666667
        value: {x: 0.0016500055, y: 0.013372845, z: -0.6897209, w: 0.72394997}
        inSlope: {x: -0.13415062, y: -0.07895492, z: -0.0052240537, w: -0.002829736}
        outSlope: {x: -0.13415062, y: -0.07895492, z: -0.0052240537, w: -0.002829736}
        tangentMode: 0
        weightedMode: 0
        inWeight: {x: 0.33333334, y: 0.33333334, z: 0.33333334, w: 0.33333334}
        outWeight: {x: 0.33333334, y: 0.33333334, z: 0.33333334, w: 0.33333334}
      - serializedVersion: 3
        time: 0.8000001
        value: {x: 0.0058326544, y: 0.017382447, z: -0.69829714, w: 0.71557313}
        inSlope: {x: 0, y: 0, z: 0, w: 0}
        outSlope: {x: 0, y: 0, z: 0, w: 0}
        tangentMode: 0
        weightedMode: 0
        inWeight: {x: 0.33333334, y: 0.33333334, z: 0.33333334, w: 0.33333334}
        outWeight: {x: 0.33333334, y: 0.33333334, z: 0.33333334, w: 0.33333334}
      m_PreInfinity: 2
      m_PostInfinity: 2
      m_RotationOrder: 4
    path: pm0535_00/Origin/Waist
  - curve:
      serializedVersion: 2
      m_Curve:
      - serializedVersion: 3
        time: 0
        value: {x: 0.036930576, y: -0.8646441, z: 0.041470755, w: 0.4993064}
        inSlope: {x: -0.0022909415, y: 0.027279852, z: -0.006491951, w: 0.047844347}
        outSlope: {x: -0.0022909415, y: 0.027279852, z: -0.006491951, w: 0.047844347}
        tangentMode: 0
        weightedMode: 0
        inWeight: {x: 0.33333334, y: 0.33333334, z: 0.33333334, w: 0.33333334}
        outWeight: {x: 0.33333334, y: 0.33333334, z: 0.33333334, w: 0.33333334}
      - serializedVersion: 3
        time: 0.033333335
        value: {x: 0.03685421, y: -0.8637348, z: 0.041254357, w: 0.5009012}
        inSlope: {x: -0.0091019645, y: 0.1113823, z: -0.0024807078, w: 0.19050165}
        outSlope: {x: -0.0091019645, y: 0.1113823, z: -0.0024807078, w: 0.19050165}
        tangentMode: 0
        weightedMode: 0
        inWeight: {x: 0.33333334, y: 0.33333334, z: 0.33333334, w: 0.33333334}
        outWeight: {x: 0.33333334, y: 0.33333334, z: 0.33333334, w: 0.33333334}
      - serializedVersion: 3
        time: 0.06666667
        value: {x: 0.03632378, y: -0.8572186, z: 0.041305374, w: 0.5120065}
        inSlope: {x: -0.054091655, y: 0.70391256, z: 0.020997781, w: 1.1020336}
        outSlope: {x: -0.054091655, y: 0.70391256, z: 0.020997781, w: 1.1020336}
        tangentMode: 0
        weightedMode: 0
        inWeight: {x: 0.33333334, y: 0.33333334, z: 0.33333334, w: 0.33333334}
        outWeight: {x: 0.33333334, y: 0.33333334, z: 0.33333334, w: 0.33333334}
      - serializedVersion: 3
        time: 0.10000001
        value: {x: 0.0332481, y: -0.81680727, z: 0.04265421, w: 0.57437015}
        inSlope: {x: -0.11893116, y: 1.6715437, z: 0.051264167, w: 2.2811024}
        outSlope: {x: -0.11893116, y: 1.6715437, z: 0.051264167, w: 2.2811024}
        tangentMode: 0
        weightedMode: 0
        inWeight: {x: 0.33333334, y: 0.33333334, z: 0.33333334, w: 0.33333334}
        outWeight: {x: 0.33333334, y: 0.33333334, z: 0.33333334, w: 0.33333334}
      - serializedVersion: 3
        time: 0.13333334
        value: {x: 0.028395034, y: -0.7457824, z: 0.044722985, w: 0.66408}
        inSlope: {x: -0.10729541, y: 1.6639935, z: 0.034254216, w: 1.9808741}
        outSlope: {x: -0.10729541, y: 1.6639935, z: 0.034254216, w: 1.9808741}
        tangentMode: 0
        weightedMode: 0
        inWeight: {x: 0.33333334, y: 0.33333334, z: 0.33333334, w: 0.33333334}
        outWeight: {x: 0.33333334, y: 0.33333334, z: 0.33333334, w: 0.33333334}
      - serializedVersion: 3
        time: 0.16666667
        value: {x: 0.026095074, y: -0.7058744, z: 0.044937823, w: 0.7064284}
        inSlope: {x: -0.0034951847, y: 0.1712575, z: -0.040091798, w: 0.1917764}
        outSlope: {x: -0.0034951847, y: 0.1712575, z: -0.040091798, w: 0.1917764}
        tangentMode: 0
        weightedMode: 0
        inWeight: {x: 0.33333334, y: 0.33333334, z: 0.33333334, w: 0.33333334}
        outWeight: {x: 0.33333334, y: 0.33333334, z: 0.33333334, w: 0.33333334}
      - serializedVersion: 3
        time: 0.23333335
        value: {x: 0.031986322, y: -0.79122955, z: 0.037498884, w: 0.6095298}
        inSlope: {x: 0.10515408, y: -1.6199427, z: -0.13778816, w: -2.101593}
        outSlope: {x: 0.10515408, y: -1.6199427, z: -0.13778816, w: -2.101593}
        tangentMode: 0
        weightedMode: 0
        inWeight: {x: 0.33333334, y: 0.33333334, z: 0.33333334, w: 0.33333334}
        outWeight: {x: 0.33333334, y: 0.33333334, z: 0.33333334, w: 0.33333334}
      - serializedVersion: 3
        time: 0.26666668
        value: {x: 0.035172295, y: -0.8423614, z: 0.03286432, w: 0.5367589}
        inSlope: {x: 0.06467281, y: -1.1059759, z: -0.11848578, w: -1.6482242}
        outSlope: {x: 0.06467281, y: -1.1059759, z: -0.11848578, w: -1.6482242}
        tangentMode: 0
        weightedMode: 0
        inWeight: {x: 0.33333334, y: 0.33333334, z: 0.33333334, w: 0.33333334}
        outWeight: {x: 0.33333334, y: 0.33333334, z: 0.33333334, w: 0.33333334}
      - serializedVersion: 3
        time: 0.3
        value: {x: 0.036297843, y: -0.86496127, z: 0.029599832, w: 0.49964818}
        inSlope: {x: 0.013940951, y: -0.2705643, z: -0.0708926, w: -0.43796185}
        outSlope: {x: 0.013940951, y: -0.2705643, z: -0.0708926, w: -0.43796185}
        tangentMode: 0
        weightedMode: 0
        inWeight: {x: 0.33333334, y: 0.33333334, z: 0.33333334, w: 0.33333334}
        outWeight: {x: 0.33333334, y: 0.33333334, z: 0.33333334, w: 0.33333334}
      - serializedVersion: 3
        time: 0.36666667
        value: {x: 0.034934103, y: -0.84386677, z: 0.027792431, w: 0.5346926}
        inSlope: {x: -0.040994473, y: 0.6227228, z: 0.0010881331, w: 0.97097623}
        outSlope: {x: -0.040994473, y: 0.6227228, z: 0.0010881331, w: 0.97097623}
        tangentMode: 0
        weightedMode: 0
        inWeight: {x: 0.33333334, y: 0.33333334, z: 0.33333334, w: 0.33333334}
        outWeight: {x: 0.33333334, y: 0.33333334, z: 0.33333334, w: 0.33333334}
      - serializedVersion: 3
        time: 0.4666667
        value: {x: 0.030222096, y: -0.76192087, z: 0.030005109, w: 0.6462685}
        inSlope: {x: -0.044453807, y: 0.71018666, z: 0.02637965, w: 0.8504698}
        outSlope: {x: -0.044453807, y: 0.71018666, z: 0.02637965, w: 0.8504698}
        tangentMode: 0
        weightedMode: 0
        inWeight: {x: 0.33333334, y: 0.33333334, z: 0.33333334, w: 0.33333334}
        outWeight: {x: 0.33333334, y: 0.33333334, z: 0.33333334, w: 0.33333334}
      - serializedVersion: 3
        time: 0.5666667
        value: {x: 0.027066981, y: -0.7409737, z: 0.03258574, w: 0.67019665}
        inSlope: {x: -0.02088818, y: -0.1764313, z: 0.036818523, w: -0.19694662}
        outSlope: {x: -0.02088818, y: -0.1764313, z: 0.036818523, w: -0.19694662}
        tangentMode: 0
        weightedMode: 0
        inWeight: {x: 0.33333334, y: 0.33333334, z: 0.33333334, w: 0.33333334}
        outWeight: {x: 0.33333334, y: 0.33333334, z: 0.33333334, w: 0.33333334}
      - serializedVersion: 3
        time: 0.6666667
        value: {x: 0.023790173, y: -0.7508865, z: 0.039489493, w: 0.6588202}
        inSlope: {x: -0.05291076, y: 0.04841118, z: 0.11084893, w: 0.050261907}
        outSlope: {x: -0.05291076, y: 0.04841118, z: 0.11084893, w: 0.050261907}
        tangentMode: 0
        weightedMode: 0
        inWeight: {x: 0.33333334, y: 0.33333334, z: 0.33333334, w: 0.33333334}
        outWeight: {x: 0.33333334, y: 0.33333334, z: 0.33333334, w: 0.33333334}
      - serializedVersion: 3
        time: 0.8000001
        value: {x: 0.016684815, y: -0.7415461, z: 0.054906156, w: 0.6684433}
        inSlope: {x: 0, y: 0, z: 0, w: 0}
        outSlope: {x: 0, y: 0, z: 0, w: 0}
        tangentMode: 0
        weightedMode: 0
        inWeight: {x: 0.33333334, y: 0.33333334, z: 0.33333334, w: 0.33333334}
        outWeight: {x: 0.33333334, y: 0.33333334, z: 0.33333334, w: 0.33333334}
      m_PreInfinity: 2
      m_PostInfinity: 2
      m_RotationOrder: 4
    path: pm0535_00/Origin/Waist/Tail1
  - curve:
      serializedVersion: 2
      m_Curve:
      - serializedVersion: 3
        time: 0
        value: {x: 0.0037563932, y: -0.063346155, z: 0.040712047, w: 0.9971538}
        inSlope: {x: -0.016689723, y: 0.06236862, z: -0.020720175, w: 0.004794001}
        outSlope: {x: -0.016689723, y: 0.06236862, z: -0.020720175, w: 0.004794001}
        tangentMode: 0
        weightedMode: 0
        inWeight: {x: 0.33333334, y: 0.33333334, z: 0.33333334, w: 0.33333334}
        outWeight: {x: 0.33333334, y: 0.33333334, z: 0.33333334, w: 0.33333334}
      - serializedVersion: 3
        time: 0.10000001
        value: {x: 0.00014803666, y: -0.015648976, z: 0.036866087, w: 0.99919766}
        inSlope: {x: -0.066879585, y: 1.155584, z: -0.06886024, w: 0.014222857}
        outSlope: {x: -0.066879585, y: 1.155584, z: -0.06886024, w: 0.014222857}
        tangentMode: 0
        weightedMode: 0
        inWeight: {x: 0.33333334, y: 0.33333334, z: 0.33333334, w: 0.33333334}
        outWeight: {x: 0.33333334, y: 0.33333334, z: 0.33333334, w: 0.33333334}
      - serializedVersion: 3
        time: 0.20000002
        value: {x: -0.0064957296, y: 0.08481935, z: 0.0270715, w: 0.9960074}
        inSlope: {x: -0.039951585, y: 0.004637867, z: -0.11762809, w: 0.002615163}
        outSlope: {x: -0.039951585, y: 0.004637867, z: -0.11762809, w: 0.002615163}
        tangentMode: 0
        weightedMode: 0
        inWeight: {x: 0.33333334, y: 0.33333334, z: 0.33333334, w: 0.33333334}
        outWeight: {x: 0.33333334, y: 0.33333334, z: 0.33333334, w: 0.33333334}
      - serializedVersion: 3
        time: 0.3
        value: {x: -0.008818538, y: -0.0147352535, z: 0.014105529, w: 0.99975306}
        inSlope: {x: -0.026810259, y: -0.9497154, z: -0.1378912, w: -0.0026017427}
        outSlope: {x: -0.026810259, y: -0.9497154, z: -0.1378912, w: -0.0026017427}
        tangentMode: 0
        weightedMode: 0
        inWeight: {x: 0.33333334, y: 0.33333334, z: 0.33333334, w: 0.33333334}
        outWeight: {x: 0.33333334, y: 0.33333334, z: 0.33333334, w: 0.33333334}
      - serializedVersion: 3
        time: 0.53333336
        value: {x: -0.013356415, y: 0.04517797, z: -0.015828162, w: 0.9987643}
        inSlope: {x: 0.017868679, y: 0.11905729, z: -0.09020819, w: -0.0058481046}
        outSlope: {x: 0.017868679, y: 0.11905729, z: -0.09020819, w: -0.0058481046}
        tangentMode: 0
        weightedMode: 0
        inWeight: {x: 0.33333334, y: 0.33333334, z: 0.33333334, w: 0.33333334}
        outWeight: {x: 0.33333334, y: 0.33333334, z: 0.33333334, w: 0.33333334}
      - serializedVersion: 3
        time: 0.6666667
        value: {x: -0.0075237514, y: 0.010828647, z: -0.021904489, w: 0.9996731}
        inSlope: {x: 0.07825402, y: -0.19291455, z: 0.006488028, w: 0.003228487}
        outSlope: {x: 0.07825402, y: -0.19291455, z: 0.006488028, w: 0.003228487}
        tangentMode: 0
        weightedMode: 0
        inWeight: {x: 0.33333334, y: 0.33333334, z: 0.33333334, w: 0.33333334}
        outWeight: {x: 0.33333334, y: 0.33333334, z: 0.33333334, w: 0.33333334}
      - serializedVersion: 3
        time: 0.8000001
        value: {x: 0.0038046334, y: 0.0047565945, z: -0.016567333, w: 0.99984425}
        inSlope: {x: 0, y: 0, z: 0, w: 0}
        outSlope: {x: 0, y: 0, z: 0, w: 0}
        tangentMode: 0
        weightedMode: 0
        inWeight: {x: 0.33333334, y: 0.33333334, z: 0.33333334, w: 0.33333334}
        outWeight: {x: 0.33333334, y: 0.33333334, z: 0.33333334, w: 0.33333334}
      m_PreInfinity: 2
      m_PostInfinity: 2
      m_RotationOrder: 4
    path: pm0535_00/Origin/Waist/Tail1/Tail2
  - curve:
      serializedVersion: 2
      m_Curve:
      - serializedVersion: 3
        time: 0
        value: {x: -0.034703918, y: -0.12684311, z: 0.08579258, w: 0.98759615}
        inSlope: {x: -0.018482765, y: 0.054319646, z: -0.026647968, w: 0.00857234}
        outSlope: {x: -0.018482765, y: 0.054319646, z: -0.026647968, w: 0.00857234}
        tangentMode: 0
        weightedMode: 0
        inWeight: {x: 0.33333334, y: 0.33333334, z: 0.33333334, w: 0.33333334}
        outWeight: {x: 0.33333334, y: 0.33333334, z: 0.33333334, w: 0.33333334}
      - serializedVersion: 3
        time: 0.06666667
        value: {x: -0.03769328, y: -0.11226685, z: 0.08273962, w: 0.98950976}
        inSlope: {x: -0.12678325, y: 0.9176879, z: -0.10072889, w: 0.09069442}
        outSlope: {x: -0.12678325, y: 0.9176879, z: -0.10072889, w: 0.09069442}
        tangentMode: 0
        weightedMode: 0
        inWeight: {x: 0.33333334, y: 0.33333334, z: 0.33333334, w: 0.33333334}
        outWeight: {x: 0.33333334, y: 0.33333334, z: 0.33333334, w: 0.33333334}
      - serializedVersion: 3
        time: 0.13333334
        value: {x: -0.051781785, y: 0.014355082, z: 0.070566766, w: 0.9960587}
        inSlope: {x: -0.22518124, y: 2.261217, z: -0.24865341, w: -0.02035439}
        outSlope: {x: -0.22518124, y: 2.261217, z: -0.24865341, w: -0.02035439}
        tangentMode: 0
        weightedMode: 0
        inWeight: {x: 0.33333334, y: 0.33333334, z: 0.33333334, w: 0.33333334}
        outWeight: {x: 0.33333334, y: 0.33333334, z: 0.33333334, w: 0.33333334}
      - serializedVersion: 3
        time: 0.20000002
        value: {x: -0.06267138, y: 0.11849507, z: 0.05384179, w: 0.98951113}
        inSlope: {x: -0.07947009, y: 0.11390841, z: -0.19164379, w: -0.004664339}
        outSlope: {x: -0.07947009, y: 0.11390841, z: -0.19164379, w: -0.004664339}
        tangentMode: 0
        weightedMode: 0
        inWeight: {x: 0.33333334, y: 0.33333334, z: 0.33333334, w: 0.33333334}
        outWeight: {x: 0.33333334, y: 0.33333334, z: 0.33333334, w: 0.33333334}
      - serializedVersion: 3
        time: 0.3
        value: {x: -0.06398153, y: -0.031784203, z: 0.042795513, w: 0.9965263}
        inSlope: {x: -0.009952226, y: -1.9062948, z: -0.09593989, w: -0.047365133}
        outSlope: {x: -0.009952226, y: -1.9062948, z: -0.09593989, w: -0.047365133}
        tangentMode: 0
        weightedMode: 0
        inWeight: {x: 0.33333334, y: 0.33333334, z: 0.33333334, w: 0.33333334}
        outWeight: {x: 0.33333334, y: 0.33333334, z: 0.33333334, w: 0.33333334}
      - serializedVersion: 3
        time: 0.36666667
        value: {x: -0.067339435, y: -0.116042145, z: 0.033621393, w: 0.99038845}
        inSlope: {x: -0.09007312, y: -0.2099256, z: -0.20783418, w: -0.019927045}
        outSlope: {x: -0.09007312, y: -0.2099256, z: -0.20783418, w: -0.019927045}
        tangentMode: 0
        weightedMode: 0
        inWeight: {x: 0.33333334, y: 0.33333334, z: 0.33333334, w: 0.33333334}
        outWeight: {x: 0.33333334, y: 0.33333334, z: 0.33333334, w: 0.33333334}
      - serializedVersion: 3
        time: 0.5
        value: {x: -0.077376336, y: 0.026444118, z: -0.007422488, w: 0.9966236}
        inSlope: {x: -0.0026353998, y: 1.3383589, z: -0.3207736, w: -0.03269521}
        outSlope: {x: -0.0026353998, y: 1.3383589, z: -0.3207736, w: -0.03269521}
        tangentMode: 0
        weightedMode: 0
        inWeight: {x: 0.33333334, y: 0.33333334, z: 0.33333334, w: 0.33333334}
        outWeight: {x: 0.33333334, y: 0.33333334, z: 0.33333334, w: 0.33333334}
      - serializedVersion: 3
        time: 0.6
        value: {x: -0.07337219, y: 0.078198425, z: -0.030802224, w: 0.9937569}
        inSlope: {x: 0.061418787, y: -0.68285584, z: -0.12046735, w: 0.045952484}
        outSlope: {x: 0.061418787, y: -0.68285584, z: -0.12046735, w: 0.045952484}
        tangentMode: 0
        weightedMode: 0
        inWeight: {x: 0.33333334, y: 0.33333334, z: 0.33333334, w: 0.33333334}
        outWeight: {x: 0.33333334, y: 0.33333334, z: 0.33333334, w: 0.33333334}
      - serializedVersion: 3
        time: 0.70000005
        value: {x: -0.06457378, y: -0.030093942, z: -0.03704771, w: 0.9967708}
        inSlope: {x: 0.1439249, y: -0.6556326, z: -0.055861875, w: -0.0069102645}
        outSlope: {x: 0.1439249, y: -0.6556326, z: -0.055861875, w: -0.0069102645}
        tangentMode: 0
        weightedMode: 0
        inWeight: {x: 0.33333334, y: 0.33333334, z: 0.33333334, w: 0.33333334}
        outWeight: {x: 0.33333334, y: 0.33333334, z: 0.33333334, w: 0.33333334}
      - serializedVersion: 3
        time: 0.8000001
        value: {x: -0.051427938, y: -0.046401188, z: -0.040965017, w: 0.99675673}
        inSlope: {x: 0, y: 0, z: 0, w: 0}
        outSlope: {x: 0, y: 0, z: 0, w: 0}
        tangentMode: 0
        weightedMode: 0
        inWeight: {x: 0.33333334, y: 0.33333334, z: 0.33333334, w: 0.33333334}
        outWeight: {x: 0.33333334, y: 0.33333334, z: 0.33333334, w: 0.33333334}
      m_PreInfinity: 2
      m_PostInfinity: 2
      m_RotationOrder: 4
    path: pm0535_00/Origin/Waist/Tail1/Tail2/Tail3
  m_CompressedRotationCurves: []
  m_EulerCurves: []
  m_PositionCurves:
  - curve:
      serializedVersion: 2
      m_Curve:
      - serializedVersion: 3
        time: 0
        value: {x: -0.0049555367, y: 0.24213618, z: -0.39613572}
        inSlope: {x: 0.27858973, y: 0.69792926, z: 0.95509166}
        outSlope: {x: 0.27858973, y: 0.69792926, z: 0.95509166}
        tangentMode: 0
        weightedMode: 0
        inWeight: {x: 0.33333334, y: 0.33333334, z: 0.33333334}
        outWeight: {x: 0.33333334, y: 0.33333334, z: 0.33333334}
      - serializedVersion: 3
        time: 0.03333334
        value: {x: 0.004330789, y: 0.2654005, z: -0.3642993}
        inSlope: {x: 0.27858973, y: 0.69792926, z: 0.95509166}
        outSlope: {x: 0.21803702, y: 0.6335999, z: 0.8744946}
        tangentMode: 0
        weightedMode: 0
        inWeight: {x: 0.33333334, y: 0.33333334, z: 0.33333334}
        outWeight: {x: 0.33333334, y: 0.33333334, z: 0.33333334}
      - serializedVersion: 3
        time: 0.06666667
        value: {x: 0.0115986895, y: 0.28652048, z: -0.3351495}
        inSlope: {x: 0.21803702, y: 0.6335999, z: 0.8744946}
        outSlope: {x: 0.16222084, y: 0.5613991, z: 0.799383}
        tangentMode: 0
        weightedMode: 0
        inWeight: {x: 0.33333334, y: 0.33333334, z: 0.33333334}
        outWeight: {x: 0.33333334, y: 0.33333334, z: 0.33333334}
      - serializedVersion: 3
        time: 0.1
        value: {x: 0.01700605, y: 0.3052338, z: -0.3085034}
        inSlope: {x: 0.16222084, y: 0.5613991, z: 0.799383}
        outSlope: {x: 0.113128304, y: 0.47694683, z: 0.7321418}
        tangentMode: 0
        weightedMode: 0
        inWeight: {x: 0.33333334, y: 0.33333334, z: 0.33333334}
        outWeight: {x: 0.33333334, y: 0.33333334, z: 0.33333334}
      - serializedVersion: 3
        time: 0.1333333
        value: {x: 0.020776989, y: 0.321132, z: -0.28409868}
        inSlope: {x: 0.113128304, y: 0.47694683, z: 0.7321418}
        outSlope: {x: 0.07075995, y: 0.3838214, z: 0.6706246}
        tangentMode: 0
        weightedMode: 0
        inWeight: {x: 0.33333334, y: 0.33333334, z: 0.33333334}
        outWeight: {x: 0.33333334, y: 0.33333334, z: 0.33333334}
      - serializedVersion: 3
        time: 0.1666667
        value: {x: 0.023135658, y: 0.33392608, z: -0.2617445}
        inSlope: {x: 0.07075995, y: 0.3838214, z: 0.6706246}
        outSlope: {x: 0.035115942, y: 0.27081326, z: 0.59604377}
        tangentMode: 0
        weightedMode: 0
        inWeight: {x: 0.33333334, y: 0.33333334, z: 0.33333334}
        outWeight: {x: 0.33333334, y: 0.33333334, z: 0.33333334}
      - serializedVersion: 3
        time: 0.2
        value: {x: 0.02430619, y: 0.34295318, z: -0.2418764}
        inSlope: {x: 0.035115942, y: 0.27081326, z: 0.59604377}
        outSlope: {x: 0.0061953366, y: 0.13862127, z: 0.50114125}
        tangentMode: 0
        weightedMode: 0
        inWeight: {x: 0.33333334, y: 0.33333334, z: 0.33333334}
        outWeight: {x: 0.33333334, y: 0.33333334, z: 0.33333334}
      - serializedVersion: 3
        time: 0.2333333
        value: {x: 0.0245127, y: 0.34757388, z: -0.2251717}
        inSlope: {x: 0.0061953366, y: 0.13862127, z: 0.50114125}
        outSlope: {x: -0.016000807, y: 0.004170218, z: 0.39085436}
        tangentMode: 0
        weightedMode: 0
        inWeight: {x: 0.33333334, y: 0.33333334, z: 0.33333334}
        outWeight: {x: 0.33333334, y: 0.33333334, z: 0.33333334}
      - serializedVersion: 3
        time: 0.2666667
        value: {x: 0.02397934, y: 0.3477129, z: -0.21214318}
        inSlope: {x: -0.016000807, y: 0.004170218, z: 0.39085436}
        outSlope: {x: -0.031472713, y: -0.09590387, z: 0.3309783}
        tangentMode: 0
        weightedMode: 0
        inWeight: {x: 0.33333334, y: 0.33333334, z: 0.33333334}
        outWeight: {x: 0.33333334, y: 0.33333334, z: 0.33333334}
      - serializedVersion: 3
        time: 0.3333333
        value: {x: 0.02150002, y: 0.33973548, z: -0.1902753}
        inSlope: {x: -0.042906947, y: -0.14341864, z: 0.32505885}
        outSlope: {x: -0.053072598, y: -0.15375568, z: 0.31898975}
        tangentMode: 0
        weightedMode: 0
        inWeight: {x: 0.33333334, y: 0.33333334, z: 0.33333334}
        outWeight: {x: 0.33333334, y: 0.33333334, z: 0.33333334}
      - serializedVersion: 3
        time: 0.4666667
        value: {x: 0.01324676, y: 0.3200087, z: -0.14988719}
        inSlope: {x: -0.06815717, y: -0.13310371, z: 0.28403956}
        outSlope: {x: -0.06804817, y: -0.10813189, z: 0.26528716}
        tangentMode: 0
        weightedMode: 0
        inWeight: {x: 0.33333334, y: 0.33333334, z: 0.33333334}
        outWeight: {x: 0.33333334, y: 0.33333334, z: 0.33333334}
      - serializedVersion: 3
        time: 0.5333334
        value: {x: 0.00879949, y: 0.3139339, z: -0.1329649}
        inSlope: {x: -0.06536984, y: -0.074111745, z: 0.24238151}
        outSlope: {x: -0.06012304, y: -0.035787426, z: 0.2169181}
        tangentMode: 0
        weightedMode: 0
        inWeight: {x: 0.33333334, y: 0.33333334, z: 0.33333334}
        outWeight: {x: 0.33333334, y: 0.33333334, z: 0.33333334}
      - serializedVersion: 3
        time: 0.5666667
        value: {x: 0.00679539, y: 0.31274098, z: -0.1257343}
        inSlope: {x: -0.06012304, y: -0.035787426, z: 0.2169181}
        outSlope: {x: -0.05230727, y: -0.0046766326, z: 0.18889205}
        tangentMode: 0
        weightedMode: 0
        inWeight: {x: 0.33333334, y: 0.33333334, z: 0.33333334}
        outWeight: {x: 0.33333334, y: 0.33333334, z: 0.33333334}
      - serializedVersion: 3
        time: 0.6
        value: {x: 0.005051816, y: 0.3125851, z: -0.1194379}
        inSlope: {x: -0.05230727, y: -0.0046766326, z: 0.18889205}
        outSlope: {x: -0.04192276, y: 0.018200701, z: 0.15831028}
        tangentMode: 0
        weightedMode: 0
        inWeight: {x: 0.33333334, y: 0.33333334, z: 0.33333334}
        outWeight: {x: 0.33333334, y: 0.33333334, z: 0.33333334}
      - serializedVersion: 3
        time: 0.6333333
        value: {x: 0.003654392, y: 0.3131918, z: -0.114160895}
        inSlope: {x: -0.04192276, y: 0.018200701, z: 0.15831028}
        outSlope: {x: -0.02896936, y: 0.03283536, z: 0.12756576}
        tangentMode: 0
        weightedMode: 0
        inWeight: {x: 0.33333334, y: 0.33333334, z: 0.33333334}
        outWeight: {x: 0.33333334, y: 0.33333334, z: 0.33333334}
      - serializedVersion: 3
        time: 0.6666667
        value: {x: 0.0026887457, y: 0.3142863, z: -0.1099087}
        inSlope: {x: -0.02896936, y: 0.03283536, z: 0.12756576}
        outSlope: {x: -0.013244228, y: 0.03923954, z: 0.09859238}
        tangentMode: 0
        weightedMode: 0
        inWeight: {x: 0.33333334, y: 0.33333334, z: 0.33333334}
        outWeight: {x: 0.33333334, y: 0.33333334, z: 0.33333334}
      - serializedVersion: 3
        time: 0.7
        value: {x: 0.0022472718, y: 0.3155943, z: -0.10662229}
        inSlope: {x: -0.013244228, y: 0.03923954, z: 0.09859238}
        outSlope: {x: 0.0059684752, y: 0.03739818, z: 0.06998097}
        tangentMode: 0
        weightedMode: 0
        inWeight: {x: 0.33333334, y: 0.33333334, z: 0.33333334}
        outWeight: {x: 0.33333334, y: 0.33333334, z: 0.33333334}
      - serializedVersion: 3
        time: 0.7333333
        value: {x: 0.002446221, y: 0.3168409, z: -0.1042896}
        inSlope: {x: 0.0059684752, y: 0.03739818, z: 0.06998097}
        outSlope: {x: 0.0288235, y: 0.027327275, z: 0.041720755}
        tangentMode: 0
        weightedMode: 0
        inWeight: {x: 0.33333334, y: 0.33333334, z: 0.33333334}
        outWeight: {x: 0.33333334, y: 0.33333334, z: 0.33333334}
      - serializedVersion: 3
        time: 0.7666667
        value: {x: 0.0034070069, y: 0.3177518, z: -0.1028989}
        inSlope: {x: 0.0288235, y: 0.027327275, z: 0.041720755}
        outSlope: {x: -0, y: -0, z: -0}
        tangentMode: 0
        weightedMode: 0
        inWeight: {x: 0.33333334, y: 0.33333334, z: 0.33333334}
        outWeight: {x: 0.33333334, y: 0.33333334, z: 0.33333334}
      - serializedVersion: 3
        time: 0.8
        value: {x: 0.0034070069, y: 0.3177518, z: -0.1028989}
        inSlope: {x: -0, y: -0, z: -0}
        outSlope: {x: -0, y: -0, z: -0}
        tangentMode: 0
        weightedMode: 0
        inWeight: {x: 0.33333334, y: 0.33333334, z: 0.33333334}
        outWeight: {x: 0.33333334, y: 0.33333334, z: 0.33333334}
      m_PreInfinity: 2
      m_PostInfinity: 2
      m_RotationOrder: 4
    path: pm0535_00/Origin/Waist
  - curve:
      serializedVersion: 2
      m_Curve:
      - serializedVersion: 3
        time: 0
        value: {x: -0, y: 0, z: 0}
        inSlope: {x: 0, y: 0, z: 0}
        outSlope: {x: 0, y: 0, z: 0}
        tangentMode: 0
        weightedMode: 0
        inWeight: {x: 0.33333334, y: 0.33333334, z: 0.33333334}
        outWeight: {x: 0.33333334, y: 0.33333334, z: 0.33333334}
      - serializedVersion: 3
        time: 0.8
        value: {x: -0, y: 0, z: 0}
        inSlope: {x: 0, y: 0, z: 0}
        outSlope: {x: 0, y: 0, z: 0}
        tangentMode: 0
        weightedMode: 0
        inWeight: {x: 0.33333334, y: 0.33333334, z: 0.33333334}
        outWeight: {x: 0.33333334, y: 0.33333334, z: 0.33333334}
      m_PreInfinity: 2
      m_PostInfinity: 2
      m_RotationOrder: 4
    path: pm0535_00/Origin/Waist/Tail1
  - curve:
      serializedVersion: 2
      m_Curve:
      - serializedVersion: 3
        time: 0
        value: {x: -0.079187155, y: 0, z: 0}
        inSlope: {x: 0, y: 0, z: 0}
        outSlope: {x: 0, y: 0, z: 0}
        tangentMode: 0
        weightedMode: 0
        inWeight: {x: 0.33333334, y: 0.33333334, z: 0.33333334}
        outWeight: {x: 0.33333334, y: 0.33333334, z: 0.33333334}
      - serializedVersion: 3
        time: 0.8
        value: {x: -0.079187155, y: 0, z: 0}
        inSlope: {x: 0, y: 0, z: 0}
        outSlope: {x: 0, y: 0, z: 0}
        tangentMode: 0
        weightedMode: 0
        inWeight: {x: 0.33333334, y: 0.33333334, z: 0.33333334}
        outWeight: {x: 0.33333334, y: 0.33333334, z: 0.33333334}
      m_PreInfinity: 2
      m_PostInfinity: 2
      m_RotationOrder: 4
    path: pm0535_00/Origin/Waist/Tail1/Tail2
  - curve:
      serializedVersion: 2
      m_Curve:
      - serializedVersion: 3
        time: 0
        value: {x: -0.08450176, y: 0, z: 0}
        inSlope: {x: 0, y: 0, z: 0}
        outSlope: {x: 0, y: 0, z: 0}
        tangentMode: 0
        weightedMode: 0
        inWeight: {x: 0.33333334, y: 0.33333334, z: 0.33333334}
        outWeight: {x: 0.33333334, y: 0.33333334, z: 0.33333334}
      - serializedVersion: 3
        time: 0.8
        value: {x: -0.08450176, y: 0, z: 0}
        inSlope: {x: 0, y: 0, z: 0}
        outSlope: {x: 0, y: 0, z: 0}
        tangentMode: 0
        weightedMode: 0
        inWeight: {x: 0.33333334, y: 0.33333334, z: 0.33333334}
        outWeight: {x: 0.33333334, y: 0.33333334, z: 0.33333334}
      m_PreInfinity: 2
      m_PostInfinity: 2
      m_RotationOrder: 4
    path: pm0535_00/Origin/Waist/Tail1/Tail2/Tail3
  m_ScaleCurves:
  - curve:
      serializedVersion: 2
      m_Curve:
      - serializedVersion: 3
        time: 0
        value: {x: 1, y: 1, z: 1}
        inSlope: {x: 0, y: 0, z: 0}
        outSlope: {x: 0, y: 0, z: 0}
        tangentMode: 0
        weightedMode: 0
        inWeight: {x: 0.33333334, y: 0.33333334, z: 0.33333334}
        outWeight: {x: 0.33333334, y: 0.33333334, z: 0.33333334}
      - serializedVersion: 3
        time: 0.8000001
        value: {x: 1, y: 1, z: 1}
        inSlope: {x: 0, y: 0, z: 0}
        outSlope: {x: 0, y: 0, z: 0}
        tangentMode: 0
        weightedMode: 0
        inWeight: {x: 0.33333334, y: 0.33333334, z: 0.33333334}
        outWeight: {x: 0.33333334, y: 0.33333334, z: 0.33333334}
      m_PreInfinity: 2
      m_PostInfinity: 2
      m_RotationOrder: 4
    path: pm0535_00/Origin/Waist
  - curve:
      serializedVersion: 2
      m_Curve:
      - serializedVersion: 3
        time: 0
        value: {x: 1, y: 1, z: 1}
        inSlope: {x: 0, y: 0, z: 0}
        outSlope: {x: 0, y: 0, z: 0}
        tangentMode: 0
        weightedMode: 0
        inWeight: {x: 0.33333334, y: 0.33333334, z: 0.33333334}
        outWeight: {x: 0.33333334, y: 0.33333334, z: 0.33333334}
      - serializedVersion: 3
        time: 0.8000001
        value: {x: 1, y: 1, z: 1}
        inSlope: {x: 0, y: 0, z: 0}
        outSlope: {x: 0, y: 0, z: 0}
        tangentMode: 0
        weightedMode: 0
        inWeight: {x: 0.33333334, y: 0.33333334, z: 0.33333334}
        outWeight: {x: 0.33333334, y: 0.33333334, z: 0.33333334}
      m_PreInfinity: 2
      m_PostInfinity: 2
      m_RotationOrder: 4
    path: pm0535_00/Origin/Waist/Tail1
  - curve:
      serializedVersion: 2
      m_Curve:
      - serializedVersion: 3
        time: 0
        value: {x: 1, y: 1, z: 1}
        inSlope: {x: 0, y: 0, z: 0}
        outSlope: {x: 0, y: 0, z: 0}
        tangentMode: 0
        weightedMode: 0
        inWeight: {x: 0.33333334, y: 0.33333334, z: 0.33333334}
        outWeight: {x: 0.33333334, y: 0.33333334, z: 0.33333334}
      - serializedVersion: 3
        time: 0.8000001
        value: {x: 1, y: 1, z: 1}
        inSlope: {x: 0, y: 0, z: 0}
        outSlope: {x: 0, y: 0, z: 0}
        tangentMode: 0
        weightedMode: 0
        inWeight: {x: 0.33333334, y: 0.33333334, z: 0.33333334}
        outWeight: {x: 0.33333334, y: 0.33333334, z: 0.33333334}
      m_PreInfinity: 2
      m_PostInfinity: 2
      m_RotationOrder: 4
    path: pm0535_00/Origin/Waist/Tail1/Tail2
  - curve:
      serializedVersion: 2
      m_Curve:
      - serializedVersion: 3
        time: 0
        value: {x: 1, y: 1, z: 1}
        inSlope: {x: 0, y: 0, z: 0}
        outSlope: {x: 0, y: 0, z: 0}
        tangentMode: 0
        weightedMode: 0
        inWeight: {x: 0.33333334, y: 0.33333334, z: 0.33333334}
        outWeight: {x: 0.33333334, y: 0.33333334, z: 0.33333334}
      - serializedVersion: 3
        time: 0.8000001
        value: {x: 1, y: 1, z: 1}
        inSlope: {x: 0, y: 0, z: 0}
        outSlope: {x: 0, y: 0, z: 0}
        tangentMode: 0
        weightedMode: 0
        inWeight: {x: 0.33333334, y: 0.33333334, z: 0.33333334}
        outWeight: {x: 0.33333334, y: 0.33333334, z: 0.33333334}
      m_PreInfinity: 2
      m_PostInfinity: 2
      m_RotationOrder: 4
    path: pm0535_00/Origin/Waist/Tail1/Tail2/Tail3
  m_FloatCurves: []
  m_PPtrCurves: []
  m_SampleRate: 30
  m_WrapMode: 0
  m_Bounds:
    m_Center: {x: 0, y: 0, z: 0}
    m_Extent: {x: 0, y: 0, z: 0}
  m_ClipBindingConstant:
    genericBindings: []
    pptrCurveMapping: []
  m_AnimationClipSettings:
    serializedVersion: 2
    m_AdditiveReferencePoseClip: {fileID: 0}
    m_AdditiveReferencePoseTime: 0
    m_StartTime: 0
    m_StopTime: 0.8000001
    m_OrientationOffsetY: 0
    m_Level: 0
    m_CycleOffset: 0
    m_HasAdditiveReferencePose: 0
    m_LoopTime: 0
    m_LoopBlend: 0
    m_LoopBlendOrientation: 0
    m_LoopBlendPositionY: 0
    m_LoopBlendPositionXZ: 0
    m_KeepOriginalOrientation: 0
    m_KeepOriginalPositionY: 1
    m_KeepOriginalPositionXZ: 0
    m_HeightFromFeet: 0
    m_Mirror: 0
  m_EditorCurves: []
  m_EulerEditorCurves: []
  m_HasGenericRootTransform: 0
  m_HasMotionFloatCurves: 0
  m_Events: []
