%YAML 1.1
%TAG !u! tag:unity3d.com,2011:
--- !u!1001 &7724828911027469527
PrefabInstance:
  m_ObjectHideFlags: 0
  serializedVersion: 2
  m_Modification:
    m_TransformParent: {fileID: 0}
    m_Modifications:
    - target: {fileID: 3814454714933531827, guid: 483464975750bf74a8b3473a92e7a7f0,
        type: 3}
      propertyPath: m_Name
      value: PPInc
      objectReference: {fileID: 0}
    - target: {fileID: 8508304307610630966, guid: 483464975750bf74a8b3473a92e7a7f0,
        type: 3}
      propertyPath: m_LocalPosition.x
      value: 0
      objectReference: {fileID: 0}
    - target: {fileID: 8508304307610630966, guid: 483464975750bf74a8b3473a92e7a7f0,
        type: 3}
      propertyPath: m_LocalPosition.y
      value: 0
      objectReference: {fileID: 0}
    - target: {fileID: 8508304307610630966, guid: 483464975750bf74a8b3473a92e7a7f0,
        type: 3}
      propertyPath: m_LocalPosition.z
      value: 0
      objectReference: {fileID: 0}
    - target: {fileID: 8508304307610630966, guid: 483464975750bf74a8b3473a92e7a7f0,
        type: 3}
      propertyPath: m_LocalRotation.x
      value: 0
      objectReference: {fileID: 0}
    - target: {fileID: 8508304307610630966, guid: 483464975750bf74a8b3473a92e7a7f0,
        type: 3}
      propertyPath: m_LocalRotation.y
      value: 0
      objectReference: {fileID: 0}
    - target: {fileID: 8508304307610630966, guid: 483464975750bf74a8b3473a92e7a7f0,
        type: 3}
      propertyPath: m_LocalRotation.z
      value: 0
      objectReference: {fileID: 0}
    - target: {fileID: 8508304307610630966, guid: 483464975750bf74a8b3473a92e7a7f0,
        type: 3}
      propertyPath: m_LocalRotation.w
      value: 1
      objectReference: {fileID: 0}
    - target: {fileID: 8508304307610630966, guid: 483464975750bf74a8b3473a92e7a7f0,
        type: 3}
      propertyPath: m_RootOrder
      value: 0
      objectReference: {fileID: 0}
    - target: {fileID: 8508304307610630966, guid: 483464975750bf74a8b3473a92e7a7f0,
        type: 3}
      propertyPath: m_LocalEulerAnglesHint.x
      value: 0
      objectReference: {fileID: 0}
    - target: {fileID: 8508304307610630966, guid: 483464975750bf74a8b3473a92e7a7f0,
        type: 3}
      propertyPath: m_LocalEulerAnglesHint.y
      value: 0
      objectReference: {fileID: 0}
    - target: {fileID: 8508304307610630966, guid: 483464975750bf74a8b3473a92e7a7f0,
        type: 3}
      propertyPath: m_LocalEulerAnglesHint.z
      value: 0
      objectReference: {fileID: 0}
    - target: {fileID: 7559850581496100433, guid: 483464975750bf74a8b3473a92e7a7f0,
        type: 3}
      propertyPath: InitialModule.startColor.maxColor.g
      value: 0.25098038
      objectReference: {fileID: 0}
    - target: {fileID: 7559850581496100433, guid: 483464975750bf74a8b3473a92e7a7f0,
        type: 3}
      propertyPath: InitialModule.startColor.maxColor.b
      value: 0.6254902
      objectReference: {fileID: 0}
    - target: {fileID: 1003500847311710731, guid: 483464975750bf74a8b3473a92e7a7f0,
        type: 3}
      propertyPath: InitialModule.startColor.maxColor.g
      value: 0.83398694
      objectReference: {fileID: 0}
    - target: {fileID: 1003500847311710731, guid: 483464975750bf74a8b3473a92e7a7f0,
        type: 3}
      propertyPath: InitialModule.startColor.maxColor.b
      value: 0.5019608
      objectReference: {fileID: 0}
    m_RemovedComponents: []
  m_SourcePrefab: {fileID: 100100000, guid: 483464975750bf74a8b3473a92e7a7f0, type: 3}
