%YAML 1.1
%TAG !u! tag:unity3d.com,2011:
--- !u!74 &7400000
AnimationClip:
  m_ObjectHideFlags: 0
  m_CorrespondingSourceObject: {fileID: 0}
  m_PrefabInstance: {fileID: 0}
  m_PrefabAsset: {fileID: 0}
  m_Name: BattleStanceL
  serializedVersion: 6
  m_Legacy: 0
  m_Compressed: 0
  m_UseHighQualityCurve: 1
  m_RotationCurves:
  - curve:
      serializedVersion: 2
      m_Curve:
      - serializedVersion: 3
        time: 0
        value: {x: 0.5168802, y: 0.50645316, z: -0.513034, w: 0.46166694}
        inSlope: {x: -0.026963351, y: -0.029187797, z: -0.07210135, w: -0.018177329}
        outSlope: {x: -0.026963351, y: -0.029187797, z: -0.07210135, w: -0.018177329}
        tangentMode: 0
        weightedMode: 0
        inWeight: {x: 0.33333334, y: 0.33333334, z: 0.33333334, w: 0.33333334}
        outWeight: {x: 0.33333334, y: 0.33333334, z: 0.33333334, w: 0.33333334}
      - serializedVersion: 3
        time: 0.40000004
        value: {x: 0.48570272, y: 0.48376012, z: -0.52373475, w: 0.50573796}
        inSlope: {x: 0.07023183, y: 0.11139792, z: 0.21707468, w: 0.050273515}
        outSlope: {x: 0.07023183, y: 0.11139792, z: 0.21707468, w: 0.050273515}
        tangentMode: 0
        weightedMode: 0
        inWeight: {x: 0.33333334, y: 0.33333334, z: 0.33333334, w: 0.33333334}
        outWeight: {x: 0.33333334, y: 0.33333334, z: 0.33333334, w: 0.33333334}
      - serializedVersion: 3
        time: 0.73333335
        value: {x: 0.503305, y: 0.5136109, z: -0.46264, w: 0.51850957}
        inSlope: {x: -0.08007644, y: -0.09090273, z: -0.07311253, w: 0.10217875}
        outSlope: {x: -0.08007644, y: -0.09090273, z: -0.07311253, w: 0.10217875}
        tangentMode: 0
        weightedMode: 0
        inWeight: {x: 0.33333334, y: 0.33333334, z: 0.33333334, w: 0.33333334}
        outWeight: {x: 0.33333334, y: 0.33333334, z: 0.33333334, w: 0.33333334}
      - serializedVersion: 3
        time: 1.0666667
        value: {x: 0.48369503, y: 0.48549473, z: -0.50590485, w: 0.52382654}
        inSlope: {x: 0.10782044, y: 0.07068566, z: -0.051016558, w: -0.21487197}
        outSlope: {x: 0.10782044, y: 0.07068566, z: -0.051016558, w: -0.21487197}
        tangentMode: 0
        weightedMode: 0
        inWeight: {x: 0.33333334, y: 0.33333334, z: 0.33333334, w: 0.33333334}
        outWeight: {x: 0.33333334, y: 0.33333334, z: 0.33333334, w: 0.33333334}
      - serializedVersion: 3
        time: 1.3333334
        value: {x: 0.5158419, y: 0.5060528, z: -0.5115849, w: 0.46486413}
        inSlope: {x: 0, y: 0, z: 0, w: 0}
        outSlope: {x: 0, y: 0, z: 0, w: 0}
        tangentMode: 0
        weightedMode: 0
        inWeight: {x: 0.33333334, y: 0.33333334, z: 0.33333334, w: 0.33333334}
        outWeight: {x: 0.33333334, y: 0.33333334, z: 0.33333334, w: 0.33333334}
      m_PreInfinity: 2
      m_PostInfinity: 2
      m_RotationOrder: 4
    path: pm0304_00/Origin/Waist
  - curve:
      serializedVersion: 2
      m_Curve:
      - serializedVersion: 3
        time: 0
        value: {x: 0.035929486, y: -0.27915984, z: 0.023778819, w: 0.9592776}
        inSlope: {x: 0.06038479, y: 0.084818594, z: 0.050767172, w: 0.020923017}
        outSlope: {x: 0.06038479, y: 0.084818594, z: 0.050767172, w: 0.020923017}
        tangentMode: 0
        weightedMode: 0
        inWeight: {x: 0.33333334, y: 0.33333334, z: 0.33333334, w: 0.33333334}
        outWeight: {x: 0.33333334, y: 0.33333334, z: 0.33333334, w: 0.33333334}
      - serializedVersion: 3
        time: 0.43333337
        value: {x: 0.0043191984, y: -0.27282062, z: 0.0047678985, w: 0.9620434}
        inSlope: {x: -0.18658525, y: -0.1314828, z: -0.13431087, w: -0.03581733}
        outSlope: {x: -0.18658525, y: -0.1314828, z: -0.13431087, w: -0.03581733}
        tangentMode: 0
        weightedMode: 0
        inWeight: {x: 0.33333334, y: 0.33333334, z: 0.33333334, w: 0.33333334}
        outWeight: {x: 0.33333334, y: 0.33333334, z: 0.33333334, w: 0.33333334}
      - serializedVersion: 3
        time: 0.8000001
        value: {x: -0.03745939, y: -0.26561356, z: -0.027219763, w: 0.962967}
        inSlope: {x: 0.040092275, y: 0.09598017, z: 0.009266006, w: 0.028325915}
        outSlope: {x: 0.040092275, y: 0.09598017, z: 0.009266006, w: 0.028325915}
        tangentMode: 0
        weightedMode: 0
        inWeight: {x: 0.33333334, y: 0.33333334, z: 0.33333334, w: 0.33333334}
        outWeight: {x: 0.33333334, y: 0.33333334, z: 0.33333334, w: 0.33333334}
      - serializedVersion: 3
        time: 1.1333334
        value: {x: 0.0018391421, y: -0.27708277, z: -0.00012698716, w: 0.9608443}
        inSlope: {x: 0.19791785, y: -0.10779829, z: 0.14002356, w: -0.031395223}
        outSlope: {x: 0.19791785, y: -0.10779829, z: 0.14002356, w: -0.031395223}
        tangentMode: 0
        weightedMode: 0
        inWeight: {x: 0.33333334, y: 0.33333334, z: 0.33333334, w: 0.33333334}
        outWeight: {x: 0.33333334, y: 0.33333334, z: 0.33333334, w: 0.33333334}
      - serializedVersion: 3
        time: 1.3333334
        value: {x: 0.032181907, y: -0.2806103, z: 0.020971209, w: 0.95905286}
        inSlope: {x: 0, y: 0, z: 0, w: 0}
        outSlope: {x: 0, y: 0, z: 0, w: 0}
        tangentMode: 0
        weightedMode: 0
        inWeight: {x: 0.33333334, y: 0.33333334, z: 0.33333334, w: 0.33333334}
        outWeight: {x: 0.33333334, y: 0.33333334, z: 0.33333334, w: 0.33333334}
      m_PreInfinity: 2
      m_PostInfinity: 2
      m_RotationOrder: 4
    path: pm0304_00/Origin/Waist/Head
  - curve:
      serializedVersion: 2
      m_Curve:
      - serializedVersion: 3
        time: 0
        value: {x: 0.7494286, y: 0.1437705, z: -0.6340752, w: -0.12504199}
        inSlope: {x: -0.052945014, y: -0.028636156, z: -0.08522629, w: 0.08433624}
        outSlope: {x: -0.052945014, y: -0.028636156, z: -0.08522629, w: 0.08433624}
        tangentMode: 0
        weightedMode: 0
        inWeight: {x: 0.33333334, y: 0.33333334, z: 0.33333334, w: 0.33333334}
        outWeight: {x: 0.33333334, y: 0.33333334, z: 0.33333334, w: 0.33333334}
      - serializedVersion: 3
        time: 0.3
        value: {x: 0.6862476, y: 0.1042232, z: -0.71394503, w: -0.0921101}
        inSlope: {x: -0.095841594, y: -0.13083817, z: -0.11835427, w: 0.049827512}
        outSlope: {x: -0.095841594, y: -0.13083817, z: -0.11835427, w: 0.049827512}
        tangentMode: 0
        weightedMode: 0
        inWeight: {x: 0.33333334, y: 0.33333334, z: 0.33333334, w: 0.33333334}
        outWeight: {x: 0.33333334, y: 0.33333334, z: 0.33333334, w: 0.33333334}
      - serializedVersion: 3
        time: 0.5666667
        value: {x: 0.7531944, y: 0.0919444, z: -0.6398169, w: -0.12197929}
        inSlope: {x: 0.29388785, y: 0.001626873, z: 0.37775964, w: -0.17223157}
        outSlope: {x: 0.29388785, y: 0.001626873, z: 0.37775964, w: -0.17223157}
        tangentMode: 0
        weightedMode: 0
        inWeight: {x: 0.33333334, y: 0.33333334, z: 0.33333334, w: 0.33333334}
        outWeight: {x: 0.33333334, y: 0.33333334, z: 0.33333334, w: 0.33333334}
      - serializedVersion: 3
        time: 0.7666667
        value: {x: 0.75195396, y: 0.09318105, z: -0.6376157, w: -0.13902825}
        inSlope: {x: -0.3035078, y: 0.017468095, z: -0.3513342, w: -0.013545815}
        outSlope: {x: -0.3035078, y: 0.017468095, z: -0.3513342, w: -0.013545815}
        tangentMode: 0
        weightedMode: 0
        inWeight: {x: 0.33333334, y: 0.33333334, z: 0.33333334, w: 0.33333334}
        outWeight: {x: 0.33333334, y: 0.33333334, z: 0.33333334, w: 0.33333334}
      - serializedVersion: 3
        time: 1.0333334
        value: {x: 0.68554527, y: 0.10879268, z: -0.70661646, w: -0.13742319}
        inSlope: {x: 0.10209294, y: 0.11804405, z: 0.11496842, w: 0.014762651}
        outSlope: {x: 0.10209294, y: 0.11804405, z: 0.11496842, w: 0.014762651}
        tangentMode: 0
        weightedMode: 0
        inWeight: {x: 0.33333334, y: 0.33333334, z: 0.33333334, w: 0.33333334}
        outWeight: {x: 0.33333334, y: 0.33333334, z: 0.33333334, w: 0.33333334}
      - serializedVersion: 3
        time: 1.3333334
        value: {x: 0.7477497, y: 0.14301312, z: -0.63578, w: -0.12728563}
        inSlope: {x: 0, y: 0, z: 0, w: 0}
        outSlope: {x: 0, y: 0, z: 0, w: 0}
        tangentMode: 0
        weightedMode: 0
        inWeight: {x: 0.33333334, y: 0.33333334, z: 0.33333334, w: 0.33333334}
        outWeight: {x: 0.33333334, y: 0.33333334, z: 0.33333334, w: 0.33333334}
      m_PreInfinity: 2
      m_PostInfinity: 2
      m_RotationOrder: 4
    path: pm0304_00/Origin/Waist/LHand
  - curve:
      serializedVersion: 2
      m_Curve:
      - serializedVersion: 3
        time: 0
        value: {x: 0.82469237, y: -0.06795776, z: -0.546843, w: 0.12738523}
        inSlope: {x: -0.06660819, y: -0.008958354, z: -0.08313238, w: 0.06747633}
        outSlope: {x: -0.06660819, y: -0.008958354, z: -0.08313238, w: 0.06747633}
        tangentMode: 0
        weightedMode: 0
        inWeight: {x: 0.33333334, y: 0.33333334, z: 0.33333334, w: 0.33333334}
        outWeight: {x: 0.33333334, y: 0.33333334, z: 0.33333334, w: 0.33333334}
      - serializedVersion: 3
        time: 0.23333335
        value: {x: 0.7627684, y: -0.07941692, z: -0.6265605, w: 0.13892181}
        inSlope: {x: -0.31264904, y: -0.08885332, z: -0.36350194, w: 0.031349886}
        outSlope: {x: -0.31264904, y: -0.08885332, z: -0.36350194, w: 0.031349886}
        tangentMode: 0
        weightedMode: 0
        inWeight: {x: 0.33333334, y: 0.33333334, z: 0.33333334, w: 0.33333334}
        outWeight: {x: 0.33333334, y: 0.33333334, z: 0.33333334, w: 0.33333334}
      - serializedVersion: 3
        time: 0.43333337
        value: {x: 0.7604737, y: -0.09892134, z: -0.62668025, w: 0.13844198}
        inSlope: {x: 0.29344085, y: -0.09257131, z: 0.35849336, w: -0.060309924}
        outSlope: {x: 0.29344085, y: -0.09257131, z: 0.35849336, w: -0.060309924}
        tangentMode: 0
        weightedMode: 0
        inWeight: {x: 0.33333334, y: 0.33333334, z: 0.33333334, w: 0.33333334}
        outWeight: {x: 0.33333334, y: 0.33333334, z: 0.33333334, w: 0.33333334}
      - serializedVersion: 3
        time: 0.70000005
        value: {x: 0.81683195, y: -0.11232525, z: -0.5540904, w: 0.1146848}
        inSlope: {x: -0.10898893, y: 0.0152784325, z: -0.17841794, w: -0.07633455}
        outSlope: {x: -0.10898893, y: 0.0152784325, z: -0.17841794, w: -0.07633455}
        tangentMode: 0
        weightedMode: 0
        inWeight: {x: 0.33333334, y: 0.33333334, z: 0.33333334, w: 0.33333334}
        outWeight: {x: 0.33333334, y: 0.33333334, z: 0.33333334, w: 0.33333334}
      - serializedVersion: 3
        time: 0.9333334
        value: {x: 0.75271237, y: -0.09531823, z: -0.64420223, w: 0.0966548}
        inSlope: {x: -0.21554944, y: 0.103530705, z: -0.27600464, w: -0.05038887}
        outSlope: {x: -0.21554944, y: 0.103530705, z: -0.27600464, w: -0.05038887}
        tangentMode: 0
        weightedMode: 0
        inWeight: {x: 0.33333334, y: 0.33333334, z: 0.33333334, w: 0.33333334}
        outWeight: {x: 0.33333334, y: 0.33333334, z: 0.33333334, w: 0.33333334}
      - serializedVersion: 3
        time: 1.1666667
        value: {x: 0.7879072, y: -0.07435441, z: -0.60183454, w: 0.10709286}
        inSlope: {x: 0.35122934, y: 0.06494025, z: 0.4751636, w: 0.13114583}
        outSlope: {x: 0.35122934, y: 0.06494025, z: 0.4751636, w: 0.13114583}
        tangentMode: 0
        weightedMode: 0
        inWeight: {x: 0.33333334, y: 0.33333334, z: 0.33333334, w: 0.33333334}
        outWeight: {x: 0.33333334, y: 0.33333334, z: 0.33333334, w: 0.33333334}
      - serializedVersion: 3
        time: 1.3333334
        value: {x: 0.82289726, y: -0.068441115, z: -0.5501451, w: 0.12448432}
        inSlope: {x: 0, y: 0, z: 0, w: 0}
        outSlope: {x: 0, y: 0, z: 0, w: 0}
        tangentMode: 0
        weightedMode: 0
        inWeight: {x: 0.33333334, y: 0.33333334, z: 0.33333334, w: 0.33333334}
        outWeight: {x: 0.33333334, y: 0.33333334, z: 0.33333334, w: 0.33333334}
      m_PreInfinity: 2
      m_PostInfinity: 2
      m_RotationOrder: 4
    path: pm0304_00/Origin/Waist/RHand
  - curve:
      serializedVersion: 2
      m_Curve:
      - serializedVersion: 3
        time: 0
        value: {x: -0.6349335, y: -0.16751684, z: 0.7469783, w: 0.10402447}
        inSlope: {x: 0.06651878, y: 0.041044053, z: 0.07611751, w: -0.07732584}
        outSlope: {x: 0.06651878, y: 0.041044053, z: 0.07611751, w: -0.07732584}
        tangentMode: 0
        weightedMode: 0
        inWeight: {x: 0.33333334, y: 0.33333334, z: 0.33333334, w: 0.33333334}
        outWeight: {x: 0.33333334, y: 0.33333334, z: 0.33333334, w: 0.33333334}
      - serializedVersion: 3
        time: 0.3
        value: {x: -0.5599808, y: -0.12318785, z: 0.81556726, w: 0.07807868}
        inSlope: {x: 0.1138571, y: 0.13921069, z: 0.10238708, w: -0.026986713}
        outSlope: {x: 0.1138571, y: 0.13921069, z: 0.10238708, w: -0.026986713}
        tangentMode: 0
        weightedMode: 0
        inWeight: {x: 0.33333334, y: 0.33333334, z: 0.33333334, w: 0.33333334}
        outWeight: {x: 0.33333334, y: 0.33333334, z: 0.33333334, w: 0.33333334}
      - serializedVersion: 3
        time: 0.6
        value: {x: -0.6360794, y: -0.11856086, z: 0.75405115, w: 0.11293048}
        inSlope: {x: -0.22489703, y: -0.03639959, z: -0.2154771, w: 0.14001189}
        outSlope: {x: -0.22489703, y: -0.03639959, z: -0.2154771, w: 0.14001189}
        tangentMode: 0
        weightedMode: 0
        inWeight: {x: 0.33333334, y: 0.33333334, z: 0.33333334, w: 0.33333334}
        outWeight: {x: 0.33333334, y: 0.33333334, z: 0.33333334, w: 0.33333334}
      - serializedVersion: 3
        time: 0.86666673
        value: {x: -0.5896911, y: -0.12372349, z: 0.7882798, w: 0.124787584}
        inSlope: {x: 0.3649047, y: -0.030798918, z: 0.2695012, w: -0.0061391327}
        outSlope: {x: 0.3649047, y: -0.030798918, z: 0.2695012, w: -0.0061391327}
        tangentMode: 0
        weightedMode: 0
        inWeight: {x: 0.33333334, y: 0.33333334, z: 0.33333334, w: 0.33333334}
        outWeight: {x: 0.33333334, y: 0.33333334, z: 0.33333334, w: 0.33333334}
      - serializedVersion: 3
        time: 1.0666667
        value: {x: -0.5664966, y: -0.13915819, z: 0.8032471, w: 0.120460846}
        inSlope: {x: -0.22526018, y: -0.13463897, z: -0.17650561, w: -0.042628165}
        outSlope: {x: -0.22526018, y: -0.13463897, z: -0.17650561, w: -0.042628165}
        tangentMode: 0
        weightedMode: 0
        inWeight: {x: 0.33333334, y: 0.33333334, z: 0.33333334, w: 0.33333334}
        outWeight: {x: 0.33333334, y: 0.33333334, z: 0.33333334, w: 0.33333334}
      - serializedVersion: 3
        time: 1.3333334
        value: {x: -0.6330063, y: -0.16713609, z: 0.7483691, w: 0.106359236}
        inSlope: {x: 0, y: 0, z: 0, w: 0}
        outSlope: {x: 0, y: 0, z: 0, w: 0}
        tangentMode: 0
        weightedMode: 0
        inWeight: {x: 0.33333334, y: 0.33333334, z: 0.33333334, w: 0.33333334}
        outWeight: {x: 0.33333334, y: 0.33333334, z: 0.33333334, w: 0.33333334}
      m_PreInfinity: 2
      m_PostInfinity: 2
      m_RotationOrder: 4
    path: pm0304_00/Origin/Waist/LFoot
  - curve:
      serializedVersion: 2
      m_Curve:
      - serializedVersion: 3
        time: 0
        value: {x: -0.5649748, y: 0.12350514, z: 0.80942625, w: -0.101878636}
        inSlope: {x: 0.07698118, y: 0.030095054, z: 0.040851828, w: -0.06379455}
        outSlope: {x: 0.07698118, y: 0.030095054, z: 0.040851828, w: -0.06379455}
        tangentMode: 0
        weightedMode: 0
        inWeight: {x: 0.33333334, y: 0.33333334, z: 0.33333334, w: 0.33333334}
        outWeight: {x: 0.33333334, y: 0.33333334, z: 0.33333334, w: 0.33333334}
      - serializedVersion: 3
        time: 0.3
        value: {x: -0.47526586, y: 0.14242645, z: 0.86115634, w: -0.11066521}
        inSlope: {x: 0.1564564, y: 0.09299175, z: 0.07282556, w: 0.010652618}
        outSlope: {x: 0.1564564, y: 0.09299175, z: 0.07282556, w: 0.010652618}
        tangentMode: 0
        weightedMode: 0
        inWeight: {x: 0.33333334, y: 0.33333334, z: 0.33333334, w: 0.33333334}
        outWeight: {x: 0.33333334, y: 0.33333334, z: 0.33333334, w: 0.33333334}
      - serializedVersion: 3
        time: 0.6
        value: {x: -0.54894173, y: 0.16159944, z: 0.8159665, w: -0.08214206}
        inSlope: {x: -0.23107773, y: 0.009667136, z: -0.14493498, w: 0.116731875}
        outSlope: {x: -0.23107773, y: 0.009667136, z: -0.14493498, w: 0.116731875}
        tangentMode: 0
        weightedMode: 0
        inWeight: {x: 0.33333334, y: 0.33333334, z: 0.33333334, w: 0.33333334}
        outWeight: {x: 0.33333334, y: 0.33333334, z: 0.33333334, w: 0.33333334}
      - serializedVersion: 3
        time: 0.8333334
        value: {x: -0.51394296, y: 0.14833634, z: 0.84213996, w: -0.06825893}
        inSlope: {x: 0.38683802, y: -0.11578739, z: 0.25918186, w: 0.03304292}
        outSlope: {x: 0.38683802, y: -0.11578739, z: 0.25918186, w: 0.03304292}
        tangentMode: 0
        weightedMode: 0
        inWeight: {x: 0.33333334, y: 0.33333334, z: 0.33333334, w: 0.33333334}
        outWeight: {x: 0.33333334, y: 0.33333334, z: 0.33333334, w: 0.33333334}
      - serializedVersion: 3
        time: 1.0666667
        value: {x: -0.48222172, y: 0.12375328, z: 0.86441517, w: -0.07024035}
        inSlope: {x: -0.2819353, y: -0.05432585, z: -0.15737519, w: -0.087416515}
        outSlope: {x: -0.2819353, y: -0.05432585, z: -0.15737519, w: -0.087416515}
        tangentMode: 0
        weightedMode: 0
        inWeight: {x: 0.33333334, y: 0.33333334, z: 0.33333334, w: 0.33333334}
        outWeight: {x: 0.33333334, y: 0.33333334, z: 0.33333334, w: 0.33333334}
      - serializedVersion: 3
        time: 1.3333334
        value: {x: -0.5626037, y: 0.12283125, z: 0.8115247, w: -0.099082135}
        inSlope: {x: 0, y: 0, z: 0, w: 0}
        outSlope: {x: 0, y: 0, z: 0, w: 0}
        tangentMode: 0
        weightedMode: 0
        inWeight: {x: 0.33333334, y: 0.33333334, z: 0.33333334, w: 0.33333334}
        outWeight: {x: 0.33333334, y: 0.33333334, z: 0.33333334, w: 0.33333334}
      m_PreInfinity: 2
      m_PostInfinity: 2
      m_RotationOrder: 4
    path: pm0304_00/Origin/Waist/RFoot
  m_CompressedRotationCurves: []
  m_EulerCurves: []
  m_PositionCurves:
  - curve:
      serializedVersion: 2
      m_Curve:
      - serializedVersion: 3
        time: 0
        value: {x: 0.01, y: 0.1405465, z: -0.03923927}
        inSlope: {x: -0.00911561, y: 0.015755937, z: 0.013219211}
        outSlope: {x: -0.00911561, y: 0.015755937, z: 0.013219211}
        tangentMode: 0
        weightedMode: 0
        inWeight: {x: 0.33333334, y: 0.33333334, z: 0.33333334}
        outWeight: {x: 0.33333334, y: 0.33333334, z: 0.33333334}
      - serializedVersion: 3
        time: 0.06666667
        value: {x: 0.009235326, y: 0.1420828, z: -0.038118098}
        inSlope: {x: -0.013824607, y: 0.030332854, z: 0.020415904}
        outSlope: {x: -0.018724931, y: 0.049320035, z: 0.030690623}
        tangentMode: 0
        weightedMode: 0
        inWeight: {x: 0.33333334, y: 0.33333334, z: 0.33333334}
        outWeight: {x: 0.33333334, y: 0.33333334, z: 0.33333334}
      - serializedVersion: 3
        time: 0.1333333
        value: {x: 0.007817276, y: 0.1457518, z: -0.03575761}
        inSlope: {x: -0.023816595, y: 0.06075017, z: 0.040124107}
        outSlope: {x: -0.029099526, y: 0.06663279, z: 0.044179104}
        tangentMode: 0
        weightedMode: 0
        inWeight: {x: 0.33333334, y: 0.33333334, z: 0.33333334}
        outWeight: {x: 0.33333334, y: 0.33333334, z: 0.33333334}
      - serializedVersion: 3
        time: 0.1666667
        value: {x: 0.00684729, y: 0.1479729, z: -0.03428497}
        inSlope: {x: -0.029099526, y: 0.06663279, z: 0.044179104}
        outSlope: {x: -0.03457394, y: 0.06696602, z: 0.044508047}
        tangentMode: 0
        weightedMode: 0
        inWeight: {x: 0.33333334, y: 0.33333334, z: 0.33333334}
        outWeight: {x: 0.33333334, y: 0.33333334, z: 0.33333334}
      - serializedVersion: 3
        time: 0.2
        value: {x: 0.005694826, y: 0.15020509, z: -0.03280137}
        inSlope: {x: -0.03457394, y: 0.06696602, z: 0.044508047}
        outSlope: {x: -0.03899993, y: 0.06175209, z: 0.041110862}
        tangentMode: 0
        weightedMode: 0
        inWeight: {x: 0.33333334, y: 0.33333334, z: 0.33333334}
        outWeight: {x: 0.33333334, y: 0.33333334, z: 0.33333334}
      - serializedVersion: 3
        time: 0.2333333
        value: {x: 0.0043948297, y: 0.15226349, z: -0.031431008}
        inSlope: {x: -0.03899993, y: 0.06175209, z: 0.041110862}
        outSlope: {x: -0.041665945, y: 0.050987896, z: 0.03398723}
        tangentMode: 0
        weightedMode: 0
        inWeight: {x: 0.33333334, y: 0.33333334, z: 0.33333334}
        outWeight: {x: 0.33333334, y: 0.33333334, z: 0.33333334}
      - serializedVersion: 3
        time: 0.3
        value: {x: 0.001557413, y: 0.1551191, z: -0.02952683}
        inSlope: {x: -0.04345651, y: 0.03468021, z: 0.023138115}
        outSlope: {x: -0.044371217, y: 0.012821972, z: 0.008562335}
        tangentMode: 0
        weightedMode: 0
        inWeight: {x: 0.33333334, y: 0.33333334, z: 0.33333334}
        outWeight: {x: 0.33333334, y: 0.33333334, z: 0.33333334}
      - serializedVersion: 3
        time: 0.3666667
        value: {x: -0.001401964, y: 0.15512769, z: -0.02952049}
        inSlope: {x: -0.044410057, y: -0.012564161, z: -0.008372125}
        outSlope: {x: -0.043573387, y: -0.034178957, z: -0.022779629}
        tangentMode: 0
        weightedMode: 0
        inWeight: {x: 0.33333334, y: 0.33333334, z: 0.33333334}
        outWeight: {x: 0.33333334, y: 0.33333334, z: 0.33333334}
      - serializedVersion: 3
        time: 0.4333333
        value: {x: -0.0042497697, y: 0.1523087, z: -0.031399358}
        inSlope: {x: -0.04186087, y: -0.05039096, z: -0.03358651}
        outSlope: {x: -0.039272532, y: -0.061200034, z: -0.040792108}
        tangentMode: 0
        weightedMode: 0
        inWeight: {x: 0.33333334, y: 0.33333334, z: 0.33333334}
        outWeight: {x: 0.33333334, y: 0.33333334, z: 0.33333334}
      - serializedVersion: 3
        time: 0.4666667
        value: {x: -0.0055588568, y: 0.15026869, z: -0.032759096}
        inSlope: {x: -0.039272532, y: -0.061200034, z: -0.040792108}
        outSlope: {x: -0.03580865, y: -0.066608965, z: -0.04439675}
        tangentMode: 0
        weightedMode: 0
        inWeight: {x: 0.33333334, y: 0.33333334, z: 0.33333334}
        outWeight: {x: 0.33333334, y: 0.33333334, z: 0.33333334}
      - serializedVersion: 3
        time: 0.5
        value: {x: -0.006752477, y: 0.1480484, z: -0.03423899}
        inSlope: {x: -0.03580865, y: -0.066608965, z: -0.04439675}
        outSlope: {x: -0.03146877, y: -0.06661188, z: -0.0443996}
        tangentMode: 0
        weightedMode: 0
        inWeight: {x: 0.33333334, y: 0.33333334, z: 0.33333334}
        outWeight: {x: 0.33333334, y: 0.33333334, z: 0.33333334}
      - serializedVersion: 3
        time: 0.5333334
        value: {x: -0.007801439, y: 0.145828, z: -0.035718977}
        inSlope: {x: -0.03146877, y: -0.06661188, z: -0.0443996}
        outSlope: {x: -0.026253432, y: -0.061215077, z: -0.04080216}
        tangentMode: 0
        weightedMode: 0
        inWeight: {x: 0.33333334, y: 0.33333334, z: 0.33333334}
        outWeight: {x: 0.33333334, y: 0.33333334, z: 0.33333334}
      - serializedVersion: 3
        time: 0.5666667
        value: {x: -0.008676552, y: 0.14378749, z: -0.03707905}
        inSlope: {x: -0.026253432, y: -0.061215077, z: -0.04080216}
        outSlope: {x: -0.020162238, y: -0.05041499, z: -0.033602744}
        tangentMode: 0
        weightedMode: 0
        inWeight: {x: 0.33333334, y: 0.33333334, z: 0.33333334}
        outWeight: {x: 0.33333334, y: 0.33333334, z: 0.33333334}
      - serializedVersion: 3
        time: 0.6
        value: {x: -0.009348626, y: 0.142107, z: -0.03819914}
        inSlope: {x: -0.020162238, y: -0.05041499, z: -0.033602744}
        outSlope: {x: -0.013195319, y: -0.034208998, z: -0.02280266}
        tangentMode: 0
        weightedMode: 0
        inWeight: {x: 0.33333334, y: 0.33333334, z: 0.33333334}
        outWeight: {x: 0.33333334, y: 0.33333334, z: 0.33333334}
      - serializedVersion: 3
        time: 0.6333333
        value: {x: -0.00978847, y: 0.1409667, z: -0.038959228}
        inSlope: {x: -0.013195319, y: -0.034208998, z: -0.02280266}
        outSlope: {x: -0.005352612, y: -0.012605942, z: -0.008401244}
        tangentMode: 0
        weightedMode: 0
        inWeight: {x: 0.33333334, y: 0.33333334, z: 0.33333334}
        outWeight: {x: 0.33333334, y: 0.33333334, z: 0.33333334}
      - serializedVersion: 3
        time: 0.6666667
        value: {x: -0.00996689, y: 0.1405465, z: -0.03923927}
        inSlope: {x: -0.005352612, y: -0.012605942, z: -0.008401244}
        outSlope: {x: 0.003365782, y: 0.012602817, z: 0.008400614}
        tangentMode: 0
        weightedMode: 0
        inWeight: {x: 0.33333334, y: 0.33333334, z: 0.33333334}
        outWeight: {x: 0.33333334, y: 0.33333334, z: 0.33333334}
      - serializedVersion: 3
        time: 0.7
        value: {x: -0.009854698, y: 0.1409666, z: -0.03895925}
        inSlope: {x: 0.003365782, y: 0.012602817, z: 0.008400614}
        outSlope: {x: 0.011985642, y: 0.034212146, z: 0.022801802}
        tangentMode: 0
        weightedMode: 0
        inWeight: {x: 0.33333334, y: 0.33333334, z: 0.33333334}
        outWeight: {x: 0.33333334, y: 0.33333334, z: 0.33333334}
      - serializedVersion: 3
        time: 0.7333333
        value: {x: -0.009455177, y: 0.142107, z: -0.03819919}
        inSlope: {x: 0.011985642, y: 0.034212146, z: 0.022801802}
        outSlope: {x: 0.019313838, y: 0.050411947, z: 0.033602055}
        tangentMode: 0
        weightedMode: 0
        inWeight: {x: 0.33333334, y: 0.33333334, z: 0.33333334}
        outWeight: {x: 0.33333334, y: 0.33333334, z: 0.33333334}
      - serializedVersion: 3
        time: 0.7666667
        value: {x: -0.008811381, y: 0.1437874, z: -0.03707912}
        inSlope: {x: 0.019313838, y: 0.050411947, z: 0.033602055}
        outSlope: {x: 0.025728328, y: 0.061215077, z: 0.040800944}
        tangentMode: 0
        weightedMode: 0
        inWeight: {x: 0.33333334, y: 0.33333334, z: 0.33333334}
        outWeight: {x: 0.33333334, y: 0.33333334, z: 0.33333334}
      - serializedVersion: 3
        time: 0.8
        value: {x: -0.00795377, y: 0.1458279, z: -0.03571909}
        inSlope: {x: 0.025728328, y: 0.061215077, z: 0.040800944}
        outSlope: {x: 0.031229006, y: 0.06661498, z: 0.044399112}
        tangentMode: 0
        weightedMode: 0
        inWeight: {x: 0.33333334, y: 0.33333334, z: 0.33333334}
        outWeight: {x: 0.33333334, y: 0.33333334, z: 0.33333334}
      - serializedVersion: 3
        time: 0.8333333
        value: {x: -0.0069128047, y: 0.1480484, z: -0.03423912}
        inSlope: {x: 0.031229006, y: 0.06661498, z: 0.044399112}
        outSlope: {x: 0.03581574, y: 0.066608846, z: 0.0443961}
        tangentMode: 0
        weightedMode: 0
        inWeight: {x: 0.33333334, y: 0.33333334, z: 0.33333334}
        outWeight: {x: 0.33333334, y: 0.33333334, z: 0.33333334}
      - serializedVersion: 3
        time: 0.8666667
        value: {x: -0.0057189455, y: 0.15026869, z: -0.03275925}
        inSlope: {x: 0.03581574, y: 0.066608846, z: 0.0443961}
        outSlope: {x: 0.039488852, y: 0.061200198, z: 0.040792216}
        tangentMode: 0
        weightedMode: 0
        inWeight: {x: 0.33333334, y: 0.33333334, z: 0.33333334}
        outWeight: {x: 0.33333334, y: 0.33333334, z: 0.33333334}
      - serializedVersion: 3
        time: 0.9
        value: {x: -0.004402652, y: 0.1523087, z: -0.03139951}
        inSlope: {x: 0.039488852, y: 0.061200198, z: 0.040792216}
        outSlope: {x: 0.042248048, y: 0.05039096, z: 0.033587154}
        tangentMode: 0
        weightedMode: 0
        inWeight: {x: 0.33333334, y: 0.33333334, z: 0.33333334}
        outWeight: {x: 0.33333334, y: 0.33333334, z: 0.33333334}
      - serializedVersion: 3
        time: 0.9333333
        value: {x: -0.002994385, y: 0.15398839, z: -0.030279938}
        inSlope: {x: 0.042248048, y: 0.05039096, z: 0.033587154}
        outSlope: {x: 0.044093475, y: 0.034178957, z: 0.022781417}
        tangentMode: 0
        weightedMode: 0
        inWeight: {x: 0.33333334, y: 0.33333334, z: 0.33333334}
        outWeight: {x: 0.33333334, y: 0.33333334, z: 0.33333334}
      - serializedVersion: 3
        time: 0.9666666
        value: {x: -0.0015246039, y: 0.15512769, z: -0.029520558}
        inSlope: {x: 0.044093475, y: 0.034178957, z: 0.022781417}
        outSlope: {x: 0.04502489, y: 0.012564149, z: 0.008374192}
        tangentMode: 0
        weightedMode: 0
        inWeight: {x: 0.33333334, y: 0.33333334, z: 0.33333334}
        outWeight: {x: 0.33333334, y: 0.33333334, z: 0.33333334}
      - serializedVersion: 3
        time: 1
        value: {x: -0.000023770399, y: 0.1555465, z: -0.029241418}
        inSlope: {x: 0.04502489, y: 0.012564149, z: 0.008374192}
        outSlope: {x: 0.04504334, y: -0.012759167, z: -0.008504561}
        tangentMode: 0
        weightedMode: 0
        inWeight: {x: 0.33333334, y: 0.33333334, z: 0.33333334}
        outWeight: {x: 0.33333334, y: 0.33333334, z: 0.33333334}
      - serializedVersion: 3
        time: 1.033333
        value: {x: 0.0014776569, y: 0.15512119, z: -0.0295249}
        inSlope: {x: 0.04504334, y: -0.012759167, z: -0.008504561}
        outSlope: {x: 0.04414583, y: -0.034529265, z: -0.02301431}
        tangentMode: 0
        weightedMode: 0
        inWeight: {x: 0.33333334, y: 0.33333334, z: 0.33333334}
        outWeight: {x: 0.33333334, y: 0.33333334, z: 0.33333334}
      - serializedVersion: 3
        time: 1.066667
        value: {x: 0.0029492148, y: 0.1539702, z: -0.03029206}
        inSlope: {x: 0.04414583, y: -0.034529265, z: -0.02301431}
        outSlope: {x: 0.04233734, y: -0.050808456, z: -0.033865772}
        tangentMode: 0
        weightedMode: 0
        inWeight: {x: 0.33333334, y: 0.33333334, z: 0.33333334}
        outWeight: {x: 0.33333334, y: 0.33333334, z: 0.33333334}
      - serializedVersion: 3
        time: 1.1
        value: {x: 0.004360448, y: 0.1522766, z: -0.03142091}
        inSlope: {x: 0.04233734, y: -0.050808456, z: -0.033865772}
        outSlope: {x: 0.039613757, y: -0.061602835, z: -0.041058164}
        tangentMode: 0
        weightedMode: 0
        inWeight: {x: 0.33333334, y: 0.33333334, z: 0.33333334}
        outWeight: {x: 0.33333334, y: 0.33333334, z: 0.33333334}
      - serializedVersion: 3
        time: 1.133333
        value: {x: 0.005680891, y: 0.1502232, z: -0.0327895}
        inSlope: {x: 0.039613757, y: -0.061602835, z: -0.041058164}
        outSlope: {x: 0.03597514, y: -0.066898495, z: -0.044589557}
        tangentMode: 0
        weightedMode: 0
        inWeight: {x: 0.33333334, y: 0.33333334, z: 0.33333334}
        outWeight: {x: 0.33333334, y: 0.33333334, z: 0.33333334}
      - serializedVersion: 3
        time: 1.166667
        value: {x: 0.0068800873, y: 0.14799319, z: -0.03427585}
        inSlope: {x: 0.03597514, y: -0.066898495, z: -0.044589557}
        outSlope: {x: 0.031424854, y: -0.06671158, z: -0.044464592}
        tangentMode: 0
        weightedMode: 0
        inWeight: {x: 0.33333334, y: 0.33333334, z: 0.33333334}
        outWeight: {x: 0.33333334, y: 0.33333334, z: 0.33333334}
      - serializedVersion: 3
        time: 1.2
        value: {x: 0.007927573, y: 0.14576949, z: -0.03575799}
        inSlope: {x: 0.031424854, y: -0.06671158, z: -0.044464592}
        outSlope: {x: 0.025959885, y: -0.061029766, z: -0.040679574}
        tangentMode: 0
        weightedMode: 0
        inWeight: {x: 0.33333334, y: 0.33333334, z: 0.33333334}
        outWeight: {x: 0.33333334, y: 0.33333334, z: 0.33333334}
      - serializedVersion: 3
        time: 1.233333
        value: {x: 0.008792893, y: 0.1437352, z: -0.037113957}
        inSlope: {x: 0.025959885, y: -0.061029766, z: -0.040679574}
        outSlope: {x: 0.019580225, y: -0.04986203, z: -0.03323389}
        tangentMode: 0
        weightedMode: 0
        inWeight: {x: 0.33333334, y: 0.33333334, z: 0.33333334}
        outWeight: {x: 0.33333334, y: 0.33333334, z: 0.33333334}
      - serializedVersion: 3
        time: 1.266667
        value: {x: 0.009445581, y: 0.1420731, z: -0.038221776}
        inSlope: {x: 0.019580225, y: -0.04986203, z: -0.03323389}
        outSlope: {x: 0.012288183, y: -0.033204276, z: -0.022131272}
        tangentMode: 0
        weightedMode: 0
        inWeight: {x: 0.33333334, y: 0.33333334, z: 0.33333334}
        outWeight: {x: 0.33333334, y: 0.33333334, z: 0.33333334}
      - serializedVersion: 3
        time: 1.3
        value: {x: 0.009855182, y: 0.1409663, z: -0.038959477}
        inSlope: {x: 0.012288183, y: -0.033204276, z: -0.022131272}
        outSlope: {x: -0, y: -0, z: -0}
        tangentMode: 0
        weightedMode: 0
        inWeight: {x: 0.33333334, y: 0.33333334, z: 0.33333334}
        outWeight: {x: 0.33333334, y: 0.33333334, z: 0.33333334}
      - serializedVersion: 3
        time: 1.333333
        value: {x: 0.009855182, y: 0.1409663, z: -0.038959477}
        inSlope: {x: -0, y: -0, z: -0}
        outSlope: {x: -0, y: -0, z: -0}
        tangentMode: 0
        weightedMode: 0
        inWeight: {x: 0.33333334, y: 0.33333334, z: 0.33333334}
        outWeight: {x: 0.33333334, y: 0.33333334, z: 0.33333334}
      m_PreInfinity: 2
      m_PostInfinity: 2
      m_RotationOrder: 4
    path: pm0304_00/Origin/Waist
  - curve:
      serializedVersion: 2
      m_Curve:
      - serializedVersion: 3
        time: 0
        value: {x: -0.1481953, y: 0, z: -0.04887513}
        inSlope: {x: 0, y: 0, z: 0}
        outSlope: {x: 0, y: 0, z: 0}
        tangentMode: 0
        weightedMode: 0
        inWeight: {x: 0.33333334, y: 0.33333334, z: 0.33333334}
        outWeight: {x: 0.33333334, y: 0.33333334, z: 0.33333334}
      - serializedVersion: 3
        time: 1.333333
        value: {x: -0.1481953, y: 0, z: -0.04887513}
        inSlope: {x: 0, y: 0, z: 0}
        outSlope: {x: 0, y: 0, z: 0}
        tangentMode: 0
        weightedMode: 0
        inWeight: {x: 0.33333334, y: 0.33333334, z: 0.33333334}
        outWeight: {x: 0.33333334, y: 0.33333334, z: 0.33333334}
      m_PreInfinity: 2
      m_PostInfinity: 2
      m_RotationOrder: 4
    path: pm0304_00/Origin/Waist/Head
  - curve:
      serializedVersion: 2
      m_Curve:
      - serializedVersion: 3
        time: 0
        value: {x: -0.112719096, y: -0.074399926, z: 0.035565928}
        inSlope: {x: 0.011420915, y: -0.011178587, z: 0.030945605}
        outSlope: {x: 0.011420915, y: -0.011178587, z: 0.030945605}
        tangentMode: 0
        weightedMode: 0
        inWeight: {x: 0.33333334, y: 0.33333334, z: 0.33333334}
        outWeight: {x: 0.33333334, y: 0.33333334, z: 0.33333334}
      - serializedVersion: 3
        time: 0.06666667
        value: {x: -0.1118793, y: -0.07521386, z: 0.03830345}
        inSlope: {x: 0.013772965, y: -0.013239385, z: 0.051179986}
        outSlope: {x: 0.015422917, y: -0.014303971, z: 0.07726443}
        tangentMode: 0
        weightedMode: 0
        inWeight: {x: 0.33333334, y: 0.33333334, z: 0.33333334}
        outWeight: {x: 0.33333334, y: 0.33333334, z: 0.33333334}
      - serializedVersion: 3
        time: 0.2666667
        value: {x: -0.108897895, y: -0.07744516, z: 0.055146378}
        inSlope: {x: 0.009909132, y: -0.0046892064, z: 0.06153732}
        outSlope: {x: 0.0016768471, y: 0.00022072812, z: 0.031727772}
        tangentMode: 0
        weightedMode: 0
        inWeight: {x: 0.33333334, y: 0.33333334, z: 0.33333334}
        outWeight: {x: 0.33333334, y: 0.33333334, z: 0.33333334}
      - serializedVersion: 3
        time: 0.3
        value: {x: -0.108842, y: -0.0774378, z: 0.05620397}
        inSlope: {x: 0.0016768471, y: 0.00022072812, z: 0.031727772}
        outSlope: {x: -0.006114012, y: 0.006127888, z: -0.006971175}
        tangentMode: 0
        weightedMode: 0
        inWeight: {x: 0.33333334, y: 0.33333334, z: 0.33333334}
        outWeight: {x: 0.33333334, y: 0.33333334, z: 0.33333334}
      - serializedVersion: 3
        time: 0.3333333
        value: {x: -0.109045796, y: -0.07723354, z: 0.055971596}
        inSlope: {x: -0.006114012, y: 0.006127888, z: -0.006971175}
        outSlope: {x: -0.013460803, y: 0.013029505, z: -0.053399615}
        tangentMode: 0
        weightedMode: 0
        inWeight: {x: 0.33333334, y: 0.33333334, z: 0.33333334}
        outWeight: {x: 0.33333334, y: 0.33333334, z: 0.33333334}
      - serializedVersion: 3
        time: 0.3666667
        value: {x: -0.10949449, y: -0.07679922, z: 0.054191608}
        inSlope: {x: -0.013460803, y: 0.013029505, z: -0.053399615}
        outSlope: {x: -0.02036707, y: 0.020928115, z: -0.094358765}
        tangentMode: 0
        weightedMode: 0
        inWeight: {x: 0.33333334, y: 0.33333334, z: 0.33333334}
        outWeight: {x: 0.33333334, y: 0.33333334, z: 0.33333334}
      - serializedVersion: 3
        time: 0.4333333
        value: {x: -0.110938296, y: -0.07517399, z: 0.04689942}
        inSlope: {x: -0.022947142, y: 0.02782891, z: -0.12440712}
        outSlope: {x: -0.021104872, y: 0.03182482, z: -0.14354429}
        tangentMode: 0
        weightedMode: 0
        inWeight: {x: 0.33333334, y: 0.33333334, z: 0.33333334}
        outWeight: {x: 0.33333334, y: 0.33333334, z: 0.33333334}
      - serializedVersion: 3
        time: 0.5666667
        value: {x: -0.1131881, y: -0.07075347, z: 0.02756961}
        inSlope: {x: -0.012057221, y: 0.03261698, z: -0.1354918}
        outSlope: {x: -0.007868965, y: 0.029148558, z: -0.11098605}
        tangentMode: 0
        weightedMode: 0
        inWeight: {x: 0.33333334, y: 0.33333334, z: 0.33333334}
        outWeight: {x: 0.33333334, y: 0.33333334, z: 0.33333334}
      - serializedVersion: 3
        time: 0.6
        value: {x: -0.1134504, y: -0.06978185, z: 0.023870079}
        inSlope: {x: -0.007868965, y: 0.029148558, z: -0.11098605}
        outSlope: {x: -0.006324011, y: 0.023814606, z: -0.07556884}
        tangentMode: 0
        weightedMode: 0
        inWeight: {x: 0.33333334, y: 0.33333334, z: 0.33333334}
        outWeight: {x: 0.33333334, y: 0.33333334, z: 0.33333334}
      - serializedVersion: 3
        time: 0.6333333
        value: {x: -0.1136612, y: -0.06898803, z: 0.02135112}
        inSlope: {x: -0.006324011, y: 0.023814606, z: -0.07556884}
        outSlope: {x: -0.0073648393, y: 0.01661466, z: -0.028263306}
        tangentMode: 0
        weightedMode: 0
        inWeight: {x: 0.33333334, y: 0.33333334, z: 0.33333334}
        outWeight: {x: 0.33333334, y: 0.33333334, z: 0.33333334}
      - serializedVersion: 3
        time: 0.6666667
        value: {x: -0.1139067, y: -0.06843421, z: 0.020409008}
        inSlope: {x: -0.0073648393, y: 0.01661466, z: -0.028263306}
        outSlope: {x: -0.007719047, y: 0.007548673, z: 0.018453615}
        tangentMode: 0
        weightedMode: 0
        inWeight: {x: 0.33333334, y: 0.33333334, z: 0.33333334}
        outWeight: {x: 0.33333334, y: 0.33333334, z: 0.33333334}
      - serializedVersion: 3
        time: 0.7
        value: {x: -0.114163995, y: -0.06818259, z: 0.021024128}
        inSlope: {x: -0.007719047, y: 0.007548673, z: 0.018453615}
        outSlope: {x: -0.007394893, y: -0.003383449, z: 0.05736399}
        tangentMode: 0
        weightedMode: 0
        inWeight: {x: 0.33333334, y: 0.33333334, z: 0.33333334}
        outWeight: {x: 0.33333334, y: 0.33333334, z: 0.33333334}
      - serializedVersion: 3
        time: 0.7333333
        value: {x: -0.11441049, y: -0.06829537, z: 0.02293626}
        inSlope: {x: -0.007394893, y: -0.003383449, z: 0.05736399}
        outSlope: {x: -0.006390078, y: -0.013034357, z: 0.08846767}
        tangentMode: 0
        weightedMode: 0
        inWeight: {x: 0.33333334, y: 0.33333334, z: 0.33333334}
        outWeight: {x: 0.33333334, y: 0.33333334, z: 0.33333334}
      - serializedVersion: 3
        time: 0.7666667
        value: {x: -0.114623494, y: -0.06872985, z: 0.02588519}
        inSlope: {x: -0.006390078, y: -0.013034357, z: 0.08846767}
        outSlope: {x: -0.0047009513, y: -0.019054001, z: 0.11176511}
        tangentMode: 0
        weightedMode: 0
        inWeight: {x: 0.33333334, y: 0.33333334, z: 0.33333334}
        outWeight: {x: 0.33333334, y: 0.33333334, z: 0.33333334}
      - serializedVersion: 3
        time: 0.8333333
        value: {x: -0.1148579, y: -0.07014548, z: 0.03383203}
        inSlope: {x: -0.0023311637, y: -0.02341492, z: 0.1266403}
        outSlope: {x: 0.0007201189, y: -0.026117112, z: 0.13148835}
        tangentMode: 0
        weightedMode: 0
        inWeight: {x: 0.33333334, y: 0.33333334, z: 0.33333334}
        outWeight: {x: 0.33333334, y: 0.33333334, z: 0.33333334}
      - serializedVersion: 3
        time: 0.9333333
        value: {x: -0.1143898, y: -0.07280624, z: 0.046104178}
        inSlope: {x: 0.008868035, y: -0.026545169, z: 0.110550605}
        outSlope: {x: 0.010764037, y: -0.024271226, z: 0.084764175}
        tangentMode: 0
        weightedMode: 0
        inWeight: {x: 0.33333334, y: 0.33333334, z: 0.33333334}
        outWeight: {x: 0.33333334, y: 0.33333334, z: 0.33333334}
      - serializedVersion: 3
        time: 0.9666666
        value: {x: -0.114030994, y: -0.073615275, z: 0.048929647}
        inSlope: {x: 0.010764037, y: -0.024271226, z: 0.084764175}
        outSlope: {x: 0.009455942, y: -0.02033853, z: 0.048766434}
        tangentMode: 0
        weightedMode: 0
        inWeight: {x: 0.33333334, y: 0.33333334, z: 0.33333334}
        outWeight: {x: 0.33333334, y: 0.33333334, z: 0.33333334}
      - serializedVersion: 3
        time: 1
        value: {x: -0.1137158, y: -0.07429323, z: 0.0505552}
        inSlope: {x: 0.009455942, y: -0.02033853, z: 0.048766434}
        outSlope: {x: 0.007830138, y: -0.014747173, z: 0.008407929}
        tangentMode: 0
        weightedMode: 0
        inWeight: {x: 0.33333334, y: 0.33333334, z: 0.33333334}
        outWeight: {x: 0.33333334, y: 0.33333334, z: 0.33333334}
      - serializedVersion: 3
        time: 1.033333
        value: {x: -0.1134548, y: -0.0747848, z: 0.05083546}
        inSlope: {x: 0.007830138, y: -0.014747173, z: 0.008407929}
        outSlope: {x: 0.005873846, y: -0.0074968706, z: -0.024280287}
        tangentMode: 0
        weightedMode: 0
        inWeight: {x: 0.33333334, y: 0.33333334, z: 0.33333334}
        outWeight: {x: 0.33333334, y: 0.33333334, z: 0.33333334}
      - serializedVersion: 3
        time: 1.1
        value: {x: -0.1131392, y: -0.07507678, z: 0.04838826}
        inSlope: {x: 0.0035940462, y: -0.0012624366, z: -0.049135607}
        outSlope: {x: 0.0009870644, y: 0.002083278, z: -0.066155344}
        tangentMode: 0
        weightedMode: 0
        inWeight: {x: 0.33333334, y: 0.33333334, z: 0.33333334}
        outWeight: {x: 0.33333334, y: 0.33333334, z: 0.33333334}
      - serializedVersion: 3
        time: 1.266667
        value: {x: -0.11301, y: -0.07438267, z: 0.03691231}
        inSlope: {x: 0.0020641857, y: 0.0039415504, z: -0.05588672}
        outSlope: {x: 0.0034890582, y: 0.0015252292, z: -0.033735428}
        tangentMode: 0
        weightedMode: 0
        inWeight: {x: 0.33333334, y: 0.33333334, z: 0.33333334}
        outWeight: {x: 0.33333334, y: 0.33333334, z: 0.33333334}
      - serializedVersion: 3
        time: 1.3
        value: {x: -0.11289369, y: -0.07433183, z: 0.03578781}
        inSlope: {x: 0.0034890582, y: 0.0015252292, z: -0.033735428}
        outSlope: {x: -0, y: -0, z: -0}
        tangentMode: 0
        weightedMode: 0
        inWeight: {x: 0.33333334, y: 0.33333334, z: 0.33333334}
        outWeight: {x: 0.33333334, y: 0.33333334, z: 0.33333334}
      - serializedVersion: 3
        time: 1.333333
        value: {x: -0.11289369, y: -0.07433183, z: 0.03578781}
        inSlope: {x: -0, y: -0, z: -0}
        outSlope: {x: -0, y: -0, z: -0}
        tangentMode: 0
        weightedMode: 0
        inWeight: {x: 0.33333334, y: 0.33333334, z: 0.33333334}
        outWeight: {x: 0.33333334, y: 0.33333334, z: 0.33333334}
      m_PreInfinity: 2
      m_PostInfinity: 2
      m_RotationOrder: 4
    path: pm0304_00/Origin/Waist/LHand
  - curve:
      serializedVersion: 2
      m_Curve:
      - serializedVersion: 3
        time: 0
        value: {x: -0.1095998, y: 0.07422561, z: 0.02430593}
        inSlope: {x: -0.007709883, y: -0.0022112844, z: 0.01922042}
        outSlope: {x: -0.007709883, y: -0.0022112844, z: 0.01922042}
        tangentMode: 0
        weightedMode: 0
        inWeight: {x: 0.33333334, y: 0.33333334, z: 0.33333334}
        outWeight: {x: 0.33333334, y: 0.33333334, z: 0.33333334}
      - serializedVersion: 3
        time: 0.03333334
        value: {x: -0.10985679, y: 0.0741519, z: 0.02494661}
        inSlope: {x: -0.007709883, y: -0.0022112844, z: 0.01922042}
        outSlope: {x: -0.006719971, y: 0.0006593228, z: 0.045645908}
        tangentMode: 0
        weightedMode: 0
        inWeight: {x: 0.33333334, y: 0.33333334, z: 0.33333334}
        outWeight: {x: 0.33333334, y: 0.33333334, z: 0.33333334}
      - serializedVersion: 3
        time: 0.06666667
        value: {x: -0.11008079, y: 0.074173875, z: 0.026468141}
        inSlope: {x: -0.006719971, y: 0.0006593228, z: 0.045645908}
        outSlope: {x: -0.0053701405, y: 0.0033060552, z: 0.08111637}
        tangentMode: 0
        weightedMode: 0
        inWeight: {x: 0.33333334, y: 0.33333334, z: 0.33333334}
        outWeight: {x: 0.33333334, y: 0.33333334, z: 0.33333334}
      - serializedVersion: 3
        time: 0.1
        value: {x: -0.1102598, y: 0.07428408, z: 0.02917202}
        inSlope: {x: -0.0053701405, y: 0.0033060552, z: 0.08111637}
        outSlope: {x: -0.0036749884, y: 0.0057279174, z: 0.10392699}
        tangentMode: 0
        weightedMode: 0
        inWeight: {x: 0.33333334, y: 0.33333334, z: 0.33333334}
        outWeight: {x: 0.33333334, y: 0.33333334, z: 0.33333334}
      - serializedVersion: 3
        time: 0.2666667
        value: {x: -0.110070795, y: 0.07589631, z: 0.04793084}
        inSlope: {x: 0.0066449973, y: 0.013169689, z: 0.10268089}
        outSlope: {x: 0.010110006, y: 0.014468922, z: 0.07924712}
        tangentMode: 0
        weightedMode: 0
        inWeight: {x: 0.33333334, y: 0.33333334, z: 0.33333334}
        outWeight: {x: 0.33333334, y: 0.33333334, z: 0.33333334}
      - serializedVersion: 3
        time: 0.3
        value: {x: -0.1097338, y: 0.076378606, z: 0.05057241}
        inSlope: {x: 0.010110006, y: 0.014468922, z: 0.07924712}
        outSlope: {x: 0.013104069, y: 0.01554338, z: 0.04656419}
        tangentMode: 0
        weightedMode: 0
        inWeight: {x: 0.33333334, y: 0.33333334, z: 0.33333334}
        outWeight: {x: 0.33333334, y: 0.33333334, z: 0.33333334}
      - serializedVersion: 3
        time: 0.3333333
        value: {x: -0.109297, y: 0.07689672, z: 0.052124545}
        inSlope: {x: 0.013104069, y: 0.01554338, z: 0.04656419}
        outSlope: {x: 0.015083859, y: 0.016393775, z: 0.008953841}
        tangentMode: 0
        weightedMode: 0
        inWeight: {x: 0.33333334, y: 0.33333334, z: 0.33333334}
        outWeight: {x: 0.33333334, y: 0.33333334, z: 0.33333334}
      - serializedVersion: 3
        time: 0.4
        value: {x: -0.10824119, y: 0.07801048, z: 0.05168803}
        inSlope: {x: 0.016590228, y: 0.017018955, z: -0.022049353}
        outSlope: {x: 0.017618768, y: 0.017420214, z: -0.045001358}
        tangentMode: 0
        weightedMode: 0
        inWeight: {x: 0.33333334, y: 0.33333334, z: 0.33333334}
        outWeight: {x: 0.33333334, y: 0.33333334, z: 0.33333334}
      - serializedVersion: 3
        time: 0.6
        value: {x: -0.104754396, y: 0.081371486, z: 0.0405455}
        inSlope: {x: 0.015666118, y: 0.014211572, z: -0.040796366}
        outSlope: {x: 0.013853944, y: 0.009957514, z: -0.022789285}
        tangentMode: 0
        weightedMode: 0
        inWeight: {x: 0.33333334, y: 0.33333334, z: 0.33333334}
        outWeight: {x: 0.33333334, y: 0.33333334, z: 0.33333334}
      - serializedVersion: 3
        time: 0.6666667
        value: {x: -0.10390709, y: 0.08190521, z: 0.03970901}
        inSlope: {x: 0.011565103, y: 0.006054206, z: -0.0023054818}
        outSlope: {x: 0.0088019455, y: 0.002499392, z: 0.020655317}
        tangentMode: 0
        weightedMode: 0
        inWeight: {x: 0.33333334, y: 0.33333334, z: 0.33333334}
        outWeight: {x: 0.33333334, y: 0.33333334, z: 0.33333334}
      - serializedVersion: 3
        time: 0.7
        value: {x: -0.1036137, y: 0.08198852, z: 0.040397517}
        inSlope: {x: 0.0088019455, y: 0.002499392, z: 0.020655317}
        outSlope: {x: 0.005570989, y: -0.00070581504, z: 0.046093266}
        tangentMode: 0
        weightedMode: 0
        inWeight: {x: 0.33333334, y: 0.33333334, z: 0.33333334}
        outWeight: {x: 0.33333334, y: 0.33333334, z: 0.33333334}
      - serializedVersion: 3
        time: 0.7666667
        value: {x: -0.1033661, y: 0.081846304, z: 0.04422009}
        inSlope: {x: 0.001857085, y: -0.00356082, z: 0.06858369}
        outSlope: {x: -0.00077390746, y: -0.006066805, z: 0.08130434}
        tangentMode: 0
        weightedMode: 0
        inWeight: {x: 0.33333334, y: 0.33333334, z: 0.33333334}
        outWeight: {x: 0.33333334, y: 0.33333334, z: 0.33333334}
      - serializedVersion: 3
        time: 0.9333333
        value: {x: -0.1040267, y: 0.08023297, z: 0.05683834}
        inSlope: {x: -0.0075808596, y: -0.012593948, z: 0.05459767}
        outSlope: {x: -0.009816179, y: -0.013352264, z: 0.02852371}
        tangentMode: 0
        weightedMode: 0
        inWeight: {x: 0.33333334, y: 0.33333334, z: 0.33333334}
        outWeight: {x: 0.33333334, y: 0.33333334, z: 0.33333334}
      - serializedVersion: 3
        time: 1
        value: {x: -0.1047628, y: 0.079329215, z: 0.05761219}
        inSlope: {x: -0.012266889, y: -0.0137603395, z: -0.0053081852}
        outSlope: {x: -0.014930994, y: -0.01381933, z: -0.046899866}
        tangentMode: 0
        weightedMode: 0
        inWeight: {x: 0.33333334, y: 0.33333334, z: 0.33333334}
        outWeight: {x: 0.33333334, y: 0.33333334, z: 0.33333334}
      - serializedVersion: 3
        time: 1.033333
        value: {x: -0.10526049, y: 0.078868575, z: 0.056048878}
        inSlope: {x: -0.014930994, y: -0.01381933, z: -0.046899866}
        outSlope: {x: -0.017807785, y: -0.0145295495, z: -0.087844476}
        tangentMode: 0
        weightedMode: 0
        inWeight: {x: 0.33333334, y: 0.33333334, z: 0.33333334}
        outWeight: {x: 0.33333334, y: 0.33333334, z: 0.33333334}
      - serializedVersion: 3
        time: 1.1
        value: {x: -0.1065508, y: 0.077856764, z: 0.049249046}
        inSlope: {x: -0.020901086, y: -0.01582459, z: -0.116149604}
        outSlope: {x: -0.020868259, y: -0.016665509, z: -0.13420771}
        tangentMode: 0
        weightedMode: 0
        inWeight: {x: 0.33333334, y: 0.33333334, z: 0.33333334}
        outWeight: {x: 0.33333334, y: 0.33333334, z: 0.33333334}
      - serializedVersion: 3
        time: 1.233333
        value: {x: -0.1087528, y: 0.07561762, z: 0.03115804}
        inSlope: {x: -0.012465336, y: -0.016469099, z: -0.12691645}
        outSlope: {x: -0.010265712, y: -0.0154958395, z: -0.10399433}
        tangentMode: 0
        weightedMode: 0
        inWeight: {x: 0.33333334, y: 0.33333334, z: 0.33333334}
        outWeight: {x: 0.33333334, y: 0.33333334, z: 0.33333334}
      - serializedVersion: 3
        time: 1.266667
        value: {x: -0.109095, y: 0.07510108, z: 0.027691491}
        inSlope: {x: -0.010265712, y: -0.0154958395, z: -0.10399433}
        outSlope: {x: -0.00837002, y: -0.014071677, z: -0.070834465}
        tangentMode: 0
        weightedMode: 0
        inWeight: {x: 0.33333334, y: 0.33333334, z: 0.33333334}
        outWeight: {x: 0.33333334, y: 0.33333334, z: 0.33333334}
      - serializedVersion: 3
        time: 1.3
        value: {x: -0.109373994, y: 0.074632026, z: 0.025330368}
        inSlope: {x: -0.00837002, y: -0.014071677, z: -0.070834465}
        outSlope: {x: -0, y: -0, z: -0}
        tangentMode: 0
        weightedMode: 0
        inWeight: {x: 0.33333334, y: 0.33333334, z: 0.33333334}
        outWeight: {x: 0.33333334, y: 0.33333334, z: 0.33333334}
      - serializedVersion: 3
        time: 1.333333
        value: {x: -0.109373994, y: 0.074632026, z: 0.025330368}
        inSlope: {x: -0, y: -0, z: -0}
        outSlope: {x: -0, y: -0, z: -0}
        tangentMode: 0
        weightedMode: 0
        inWeight: {x: 0.33333334, y: 0.33333334, z: 0.33333334}
        outWeight: {x: 0.33333334, y: 0.33333334, z: 0.33333334}
      m_PreInfinity: 2
      m_PostInfinity: 2
      m_RotationOrder: 4
    path: pm0304_00/Origin/Waist/RHand
  - curve:
      serializedVersion: 2
      m_Curve:
      - serializedVersion: 3
        time: 0
        value: {x: 0.06432286, y: -0.05933352, z: 0.04619615}
        inSlope: {x: 0.013218924, y: -0.00029282563, z: 0.012892482}
        outSlope: {x: 0.013218924, y: -0.00029282563, z: 0.012892482}
        tangentMode: 0
        weightedMode: 0
        inWeight: {x: 0.33333334, y: 0.33333334, z: 0.33333334}
        outWeight: {x: 0.33333334, y: 0.33333334, z: 0.33333334}
      - serializedVersion: 3
        time: 0.3
        value: {x: 0.06928384, y: -0.06458007, z: 0.04939701}
        inSlope: {x: 0.0046345755, y: -0.022351762, z: -0.007057721}
        outSlope: {x: -0.005150704, y: -0.018673629, z: -0.020032901}
        tangentMode: 0
        weightedMode: 0
        inWeight: {x: 0.33333334, y: 0.33333334, z: 0.33333334}
        outWeight: {x: 0.33333334, y: 0.33333334, z: 0.33333334}
      - serializedVersion: 3
        time: 0.4333333
        value: {x: 0.066428185, y: -0.06621467, z: 0.04419411}
        inSlope: {x: -0.036657322, y: -0.0070764604, z: -0.05782133}
        outSlope: {x: -0.039786458, y: -0.0053189187, z: -0.067117766}
        tangentMode: 0
        weightedMode: 0
        inWeight: {x: 0.33333334, y: 0.33333334, z: 0.33333334}
        outWeight: {x: 0.33333334, y: 0.33333334, z: 0.33333334}
      - serializedVersion: 3
        time: 0.6
        value: {x: 0.0606003, y: -0.06696152, z: 0.033383276}
        inSlope: {x: -0.024608683, y: -0.0049813315, z: -0.053686574}
        outSlope: {x: -0.01589643, y: -0.006569344, z: -0.039171305}
        tangentMode: 0
        weightedMode: 0
        inWeight: {x: 0.33333334, y: 0.33333334, z: 0.33333334}
        outWeight: {x: 0.33333334, y: 0.33333334, z: 0.33333334}
      - serializedVersion: 3
        time: 0.6666667
        value: {x: 0.059781827, y: -0.06747471, z: 0.031404458}
        inSlope: {x: -0.008657734, y: -0.008826248, z: -0.020193297}
        outSlope: {x: -0.0020051498, y: -0.011752807, z: 0.00064172805}
        tangentMode: 0
        weightedMode: 0
        inWeight: {x: 0.33333334, y: 0.33333334, z: 0.33333334}
        outWeight: {x: 0.33333334, y: 0.33333334, z: 0.33333334}
      - serializedVersion: 3
        time: 0.7333333
        value: {x: 0.05985037, y: -0.06837808, z: 0.032027718}
        inSlope: {x: 0.0040613688, y: -0.015348401, z: 0.018056076}
        outSlope: {x: 0.0095412005, y: -0.019612404, z: 0.03201748}
        tangentMode: 0
        weightedMode: 0
        inWeight: {x: 0.33333334, y: 0.33333334, z: 0.33333334}
        outWeight: {x: 0.33333334, y: 0.33333334, z: 0.33333334}
      - serializedVersion: 3
        time: 1
        value: {x: 0.064890504, y: -0.07260579, z: 0.04392793}
        inSlope: {x: 0.015385969, y: 0.0035191919, z: 0.033062898}
        outSlope: {x: 0.010234428, y: 0.015636245, z: 0.022962838}
        tangentMode: 0
        weightedMode: 0
        inWeight: {x: 0.33333334, y: 0.33333334, z: 0.33333334}
        outWeight: {x: 0.33333334, y: 0.33333334, z: 0.33333334}
      - serializedVersion: 3
        time: 1.3
        value: {x: 0.06428633, y: -0.059965868, z: 0.046045396}
        inSlope: {x: -0.0024068637, y: 0.032855798, z: 0.0027038413}
        outSlope: {x: -0, y: -0, z: -0}
        tangentMode: 0
        weightedMode: 0
        inWeight: {x: 0.33333334, y: 0.33333334, z: 0.33333334}
        outWeight: {x: 0.33333334, y: 0.33333334, z: 0.33333334}
      - serializedVersion: 3
        time: 1.333333
        value: {x: 0.06428633, y: -0.059965868, z: 0.046045396}
        inSlope: {x: -0, y: -0, z: -0}
        outSlope: {x: -0, y: -0, z: -0}
        tangentMode: 0
        weightedMode: 0
        inWeight: {x: 0.33333334, y: 0.33333334, z: 0.33333334}
        outWeight: {x: 0.33333334, y: 0.33333334, z: 0.33333334}
      m_PreInfinity: 2
      m_PostInfinity: 2
      m_RotationOrder: 4
    path: pm0304_00/Origin/Waist/LFoot
  - curve:
      serializedVersion: 2
      m_Curve:
      - serializedVersion: 3
        time: 0
        value: {x: 0.053162377, y: 0.07142879, z: 0.03702189}
        inSlope: {x: 0.0030345432, y: 0.0136343455, z: 0.010004995}
        outSlope: {x: 0.0030345432, y: 0.0136343455, z: 0.010004995}
        tangentMode: 0
        weightedMode: 0
        inWeight: {x: 0.33333334, y: 0.33333334, z: 0.33333334}
        outWeight: {x: 0.33333334, y: 0.33333334, z: 0.33333334}
      - serializedVersion: 3
        time: 0.1
        value: {x: 0.05400627, y: 0.07295002, z: 0.039489787}
        inSlope: {x: 0.013903571, y: 0.016466761, z: 0.040505365}
        outSlope: {x: 0.01960833, y: 0.016428871, z: 0.055918902}
        tangentMode: 0
        weightedMode: 0
        inWeight: {x: 0.33333334, y: 0.33333334, z: 0.33333334}
        outWeight: {x: 0.33333334, y: 0.33333334, z: 0.33333334}
      - serializedVersion: 3
        time: 0.3333333
        value: {x: 0.060322836, y: 0.07494656, z: 0.052931298}
        inSlope: {x: 0.019239252, y: -0.0041639367, z: 0.035762675}
        outSlope: {x: 0.008659586, y: -0.010989599, z: 0.019306721}
        tangentMode: 0
        weightedMode: 0
        inWeight: {x: 0.33333334, y: 0.33333334, z: 0.33333334}
        outWeight: {x: 0.33333334, y: 0.33333334, z: 0.33333334}
      - serializedVersion: 3
        time: 0.6666667
        value: {x: 0.058465462, y: 0.0659977, z: 0.050977558}
        inSlope: {x: 0.0053646993, y: -0.01728271, z: 0.0015752779}
        outSlope: {x: 0.012144911, y: -0.010513839, z: 0.013190187}
        tangentMode: 0
        weightedMode: 0
        inWeight: {x: 0.33333334, y: 0.33333334, z: 0.33333334}
        outWeight: {x: 0.33333334, y: 0.33333334, z: 0.33333334}
      - serializedVersion: 3
        time: 0.9666666
        value: {x: 0.06459698, y: 0.0669795, z: 0.05840436}
        inSlope: {x: 0.008003719, y: 0.012433445, z: 0.0035697015}
        outSlope: {x: -0.003451243, y: 0.013071836, z: -0.013234771}
        tangentMode: 0
        weightedMode: 0
        inWeight: {x: 0.33333334, y: 0.33333334, z: 0.33333334}
        outWeight: {x: 0.33333334, y: 0.33333334, z: 0.33333334}
      - serializedVersion: 3
        time: 1.066667
        value: {x: 0.06285159, y: 0.06829528, z: 0.05501158}
        inSlope: {x: -0.032092724, y: 0.0131867565, z: -0.055061974}
        outSlope: {x: -0.043599337, y: 0.013219893, z: -0.07169438}
        tangentMode: 0
        weightedMode: 0
        inWeight: {x: 0.33333334, y: 0.33333334, z: 0.33333334}
        outWeight: {x: 0.33333334, y: 0.33333334, z: 0.33333334}
      - serializedVersion: 3
        time: 1.266667
        value: {x: 0.054323837, y: 0.070779644, z: 0.03931694}
        inSlope: {x: -0.030269146, y: 0.011120711, z: -0.06536745}
        outSlope: {x: -0.019964023, y: 0.010248733, z: -0.046208918}
        tangentMode: 0
        weightedMode: 0
        inWeight: {x: 0.33333334, y: 0.33333334, z: 0.33333334}
        outWeight: {x: 0.33333334, y: 0.33333334, z: 0.33333334}
      - serializedVersion: 3
        time: 1.3
        value: {x: 0.05365838, y: 0.07112127, z: 0.03777666}
        inSlope: {x: -0.019964023, y: 0.010248733, z: -0.046208918}
        outSlope: {x: -0, y: -0, z: -0}
        tangentMode: 0
        weightedMode: 0
        inWeight: {x: 0.33333334, y: 0.33333334, z: 0.33333334}
        outWeight: {x: 0.33333334, y: 0.33333334, z: 0.33333334}
      - serializedVersion: 3
        time: 1.333333
        value: {x: 0.05365838, y: 0.07112127, z: 0.03777666}
        inSlope: {x: -0, y: -0, z: -0}
        outSlope: {x: -0, y: -0, z: -0}
        tangentMode: 0
        weightedMode: 0
        inWeight: {x: 0.33333334, y: 0.33333334, z: 0.33333334}
        outWeight: {x: 0.33333334, y: 0.33333334, z: 0.33333334}
      m_PreInfinity: 2
      m_PostInfinity: 2
      m_RotationOrder: 4
    path: pm0304_00/Origin/Waist/RFoot
  m_ScaleCurves:
  - curve:
      serializedVersion: 2
      m_Curve:
      - serializedVersion: 3
        time: 0
        value: {x: 1, y: 1, z: 1}
        inSlope: {x: 0, y: 0, z: 0}
        outSlope: {x: 0, y: 0, z: 0}
        tangentMode: 0
        weightedMode: 0
        inWeight: {x: 0.33333334, y: 0.33333334, z: 0.33333334}
        outWeight: {x: 0.33333334, y: 0.33333334, z: 0.33333334}
      - serializedVersion: 3
        time: 1.3333334
        value: {x: 1, y: 1, z: 1}
        inSlope: {x: 0, y: 0, z: 0}
        outSlope: {x: 0, y: 0, z: 0}
        tangentMode: 0
        weightedMode: 0
        inWeight: {x: 0.33333334, y: 0.33333334, z: 0.33333334}
        outWeight: {x: 0.33333334, y: 0.33333334, z: 0.33333334}
      m_PreInfinity: 2
      m_PostInfinity: 2
      m_RotationOrder: 4
    path: pm0304_00/Origin/Waist
  - curve:
      serializedVersion: 2
      m_Curve:
      - serializedVersion: 3
        time: 0
        value: {x: 1, y: 1, z: 1}
        inSlope: {x: 0, y: 0, z: 0}
        outSlope: {x: 0, y: 0, z: 0}
        tangentMode: 0
        weightedMode: 0
        inWeight: {x: 0.33333334, y: 0.33333334, z: 0.33333334}
        outWeight: {x: 0.33333334, y: 0.33333334, z: 0.33333334}
      - serializedVersion: 3
        time: 1.3333334
        value: {x: 1, y: 1, z: 1}
        inSlope: {x: 0, y: 0, z: 0}
        outSlope: {x: 0, y: 0, z: 0}
        tangentMode: 0
        weightedMode: 0
        inWeight: {x: 0.33333334, y: 0.33333334, z: 0.33333334}
        outWeight: {x: 0.33333334, y: 0.33333334, z: 0.33333334}
      m_PreInfinity: 2
      m_PostInfinity: 2
      m_RotationOrder: 4
    path: pm0304_00/Origin/Waist/Head
  - curve:
      serializedVersion: 2
      m_Curve:
      - serializedVersion: 3
        time: 0
        value: {x: 1, y: 1, z: 1}
        inSlope: {x: 0, y: 0, z: 0}
        outSlope: {x: 0, y: 0, z: 0}
        tangentMode: 0
        weightedMode: 0
        inWeight: {x: 0.33333334, y: 0.33333334, z: 0.33333334}
        outWeight: {x: 0.33333334, y: 0.33333334, z: 0.33333334}
      - serializedVersion: 3
        time: 1.3333334
        value: {x: 1, y: 1, z: 1}
        inSlope: {x: 0, y: 0, z: 0}
        outSlope: {x: 0, y: 0, z: 0}
        tangentMode: 0
        weightedMode: 0
        inWeight: {x: 0.33333334, y: 0.33333334, z: 0.33333334}
        outWeight: {x: 0.33333334, y: 0.33333334, z: 0.33333334}
      m_PreInfinity: 2
      m_PostInfinity: 2
      m_RotationOrder: 4
    path: pm0304_00/Origin/Waist/LHand
  - curve:
      serializedVersion: 2
      m_Curve:
      - serializedVersion: 3
        time: 0
        value: {x: 1, y: 1, z: 1}
        inSlope: {x: 0, y: 0, z: 0}
        outSlope: {x: 0, y: 0, z: 0}
        tangentMode: 0
        weightedMode: 0
        inWeight: {x: 0.33333334, y: 0.33333334, z: 0.33333334}
        outWeight: {x: 0.33333334, y: 0.33333334, z: 0.33333334}
      - serializedVersion: 3
        time: 1.3333334
        value: {x: 1, y: 1, z: 1}
        inSlope: {x: 0, y: 0, z: 0}
        outSlope: {x: 0, y: 0, z: 0}
        tangentMode: 0
        weightedMode: 0
        inWeight: {x: 0.33333334, y: 0.33333334, z: 0.33333334}
        outWeight: {x: 0.33333334, y: 0.33333334, z: 0.33333334}
      m_PreInfinity: 2
      m_PostInfinity: 2
      m_RotationOrder: 4
    path: pm0304_00/Origin/Waist/RHand
  - curve:
      serializedVersion: 2
      m_Curve:
      - serializedVersion: 3
        time: 0
        value: {x: 1, y: 1, z: 1}
        inSlope: {x: 0, y: 0, z: 0}
        outSlope: {x: 0, y: 0, z: 0}
        tangentMode: 0
        weightedMode: 0
        inWeight: {x: 0.33333334, y: 0.33333334, z: 0.33333334}
        outWeight: {x: 0.33333334, y: 0.33333334, z: 0.33333334}
      - serializedVersion: 3
        time: 1.3333334
        value: {x: 1, y: 1, z: 1}
        inSlope: {x: 0, y: 0, z: 0}
        outSlope: {x: 0, y: 0, z: 0}
        tangentMode: 0
        weightedMode: 0
        inWeight: {x: 0.33333334, y: 0.33333334, z: 0.33333334}
        outWeight: {x: 0.33333334, y: 0.33333334, z: 0.33333334}
      m_PreInfinity: 2
      m_PostInfinity: 2
      m_RotationOrder: 4
    path: pm0304_00/Origin/Waist/LFoot
  - curve:
      serializedVersion: 2
      m_Curve:
      - serializedVersion: 3
        time: 0
        value: {x: 1, y: 1, z: 1}
        inSlope: {x: 0, y: 0, z: 0}
        outSlope: {x: 0, y: 0, z: 0}
        tangentMode: 0
        weightedMode: 0
        inWeight: {x: 0.33333334, y: 0.33333334, z: 0.33333334}
        outWeight: {x: 0.33333334, y: 0.33333334, z: 0.33333334}
      - serializedVersion: 3
        time: 1.3333334
        value: {x: 1, y: 1, z: 1}
        inSlope: {x: 0, y: 0, z: 0}
        outSlope: {x: 0, y: 0, z: 0}
        tangentMode: 0
        weightedMode: 0
        inWeight: {x: 0.33333334, y: 0.33333334, z: 0.33333334}
        outWeight: {x: 0.33333334, y: 0.33333334, z: 0.33333334}
      m_PreInfinity: 2
      m_PostInfinity: 2
      m_RotationOrder: 4
    path: pm0304_00/Origin/Waist/RFoot
  m_FloatCurves: []
  m_PPtrCurves: []
  m_SampleRate: 30
  m_WrapMode: 0
  m_Bounds:
    m_Center: {x: 0, y: 0, z: 0}
    m_Extent: {x: 0, y: 0, z: 0}
  m_ClipBindingConstant:
    genericBindings:
    - serializedVersion: 2
      path: 1724249968
      attribute: 1
      script: {fileID: 0}
      typeID: 4
      customType: 0
      isPPtrCurve: 0
    - serializedVersion: 2
      path: 2161162639
      attribute: 1
      script: {fileID: 0}
      typeID: 4
      customType: 0
      isPPtrCurve: 0
    - serializedVersion: 2
      path: 1593872492
      attribute: 1
      script: {fileID: 0}
      typeID: 4
      customType: 0
      isPPtrCurve: 0
    - serializedVersion: 2
      path: 1849541267
      attribute: 1
      script: {fileID: 0}
      typeID: 4
      customType: 0
      isPPtrCurve: 0
    - serializedVersion: 2
      path: 2985159536
      attribute: 1
      script: {fileID: 0}
      typeID: 4
      customType: 0
      isPPtrCurve: 0
    - serializedVersion: 2
      path: 1724249968
      attribute: 2
      script: {fileID: 0}
      typeID: 4
      customType: 0
      isPPtrCurve: 0
    - serializedVersion: 2
      path: 3851853613
      attribute: 2
      script: {fileID: 0}
      typeID: 4
      customType: 0
      isPPtrCurve: 0
    - serializedVersion: 2
      path: 2161162639
      attribute: 2
      script: {fileID: 0}
      typeID: 4
      customType: 0
      isPPtrCurve: 0
    - serializedVersion: 2
      path: 1593872492
      attribute: 2
      script: {fileID: 0}
      typeID: 4
      customType: 0
      isPPtrCurve: 0
    - serializedVersion: 2
      path: 1849541267
      attribute: 2
      script: {fileID: 0}
      typeID: 4
      customType: 0
      isPPtrCurve: 0
    - serializedVersion: 2
      path: 2985159536
      attribute: 2
      script: {fileID: 0}
      typeID: 4
      customType: 0
      isPPtrCurve: 0
    - serializedVersion: 2
      path: 3851853613
      attribute: 1
      script: {fileID: 0}
      typeID: 4
      customType: 0
      isPPtrCurve: 0
    - serializedVersion: 2
      path: 1724249968
      attribute: 3
      script: {fileID: 0}
      typeID: 4
      customType: 0
      isPPtrCurve: 0
    - serializedVersion: 2
      path: 3851853613
      attribute: 3
      script: {fileID: 0}
      typeID: 4
      customType: 0
      isPPtrCurve: 0
    - serializedVersion: 2
      path: 2161162639
      attribute: 3
      script: {fileID: 0}
      typeID: 4
      customType: 0
      isPPtrCurve: 0
    - serializedVersion: 2
      path: 1593872492
      attribute: 3
      script: {fileID: 0}
      typeID: 4
      customType: 0
      isPPtrCurve: 0
    - serializedVersion: 2
      path: 1849541267
      attribute: 3
      script: {fileID: 0}
      typeID: 4
      customType: 0
      isPPtrCurve: 0
    - serializedVersion: 2
      path: 2985159536
      attribute: 3
      script: {fileID: 0}
      typeID: 4
      customType: 0
      isPPtrCurve: 0
    pptrCurveMapping: []
  m_AnimationClipSettings:
    serializedVersion: 2
    m_AdditiveReferencePoseClip: {fileID: 0}
    m_AdditiveReferencePoseTime: 0
    m_StartTime: 0
    m_StopTime: 1.3333334
    m_OrientationOffsetY: 0
    m_Level: 0
    m_CycleOffset: 0
    m_HasAdditiveReferencePose: 0
    m_LoopTime: 1
    m_LoopBlend: 0
    m_LoopBlendOrientation: 0
    m_LoopBlendPositionY: 0
    m_LoopBlendPositionXZ: 0
    m_KeepOriginalOrientation: 0
    m_KeepOriginalPositionY: 1
    m_KeepOriginalPositionXZ: 0
    m_HeightFromFeet: 0
    m_Mirror: 0
  m_EditorCurves: []
  m_EulerEditorCurves: []
  m_HasGenericRootTransform: 0
  m_HasMotionFloatCurves: 0
  m_Events: []
